{
  "exports": {
    "DAD_AutoScroll": {
      "args": [
        [
          "HWND",
          "hwnd"
        ],
        [
          "AUTO_SCROLL_DATA*",
          "pad"
        ],
        [
          "POINT*",
          "pptNow"
        ]
      ],
      "call": "std"
    },
    "DAD_DragEnterEx": {
      "args": [
        [
          "HWND",
          "hwndTarget"
        ],
        [
          "POINT",
          "ptStart"
        ]
      ],
      "call": "std"
    },
    "DAD_DragEnterEx2": {
      "args": [
        [
          "HWND",
          "hwndTarget"
        ],
        [
          "POINT",
          "ptStart"
        ],
        [
          "IDataObject*",
          "pdtObject"
        ]
      ],
      "call": "std"
    },
    "DAD_DragLeave": {
      "args": [],
      "call": "std"
    },
    "DAD_DragMove": {
      "args": [
        [
          "POINT",
          "pt"
        ]
      ],
      "call": "std"
    },
    "DAD_SetDragImage": {
      "args": [
        [
          "HIMAGELIST",
          "him"
        ],
        [
          "POINT*",
          "pptOffset"
        ]
      ],
      "call": "std"
    },
    "DAD_ShowDragImage": {
      "args": [
        [
          "BOOL",
          "fShow"
        ]
      ],
      "call": "std"
    },
    "DoEnvironmentSubstA": {
      "args": [
        [
          "LPSTR",
          "szString"
        ],
        [
          "UINT",
          "cchString"
        ]
      ],
      "call": "std"
    },
    "DoEnvironmentSubstW": {
      "args": [
        [
          "LPWSTR",
          "szString"
        ],
        [
          "UINT",
          "cchString"
        ]
      ],
      "call": "std"
    },
    "DragAcceptFiles": {
      "args": [
        [
          "HWND",
          "hWnd"
        ],
        [
          "BOOL",
          "fAccept"
        ]
      ],
      "call": "std"
    },
    "DragFinish": {
      "args": [
        [
          "HDROP",
          "hDrop"
        ]
      ],
      "call": "std"
    },
    "DragQueryFileA": {
      "args": [
        [
          "HDROP",
          "hDrop"
        ],
        [
          "UINT",
          "iFile"
        ],
        [
          "LPSTR",
          "lpszFile"
        ],
        [
          "UINT",
          "cch"
        ]
      ],
      "call": "std"
    },
    "DragQueryFileW": {
      "args": [
        [
          "HDROP",
          "hDrop"
        ],
        [
          "UINT",
          "iFile"
        ],
        [
          "LPWSTR",
          "lpszFile"
        ],
        [
          "UINT",
          "cch"
        ]
      ],
      "call": "std"
    },
    "DragQueryPoint": {
      "args": [
        [
          "HDROP",
          "hDrop"
        ],
        [
          "LPPOINT",
          "lppt"
        ]
      ],
      "call": "std"
    },
    "DriveType": {
      "args": [
        [
          "int",
          "iDrive"
        ]
      ],
      "call": "std"
    },
    "DuplicateIcon": {
      "args": [
        [
          "HINSTANCE",
          "hInst"
        ],
        [
          "HICON",
          "hIcon"
        ]
      ],
      "call": "std"
    },
    "ExtractAssociatedIconA": {
      "args": [
        [
          "HINSTANCE",
          "hInst"
        ],
        [
          "LPSTR",
          "pszIconPath"
        ],
        [
          "WORD*",
          "piIcon"
        ]
      ],
      "call": "std"
    },
    "ExtractAssociatedIconExA": {
      "args": [
        [
          "HINSTANCE",
          "hInst"
        ],
        [
          "LPSTR",
          "pszIconPath"
        ],
        [
          "WORD*",
          "piIconIndex"
        ],
        [
          "WORD*",
          "piIconId"
        ]
      ],
      "call": "std"
    },
    "ExtractAssociatedIconExW": {
      "args": [
        [
          "HINSTANCE",
          "hInst"
        ],
        [
          "LPWSTR",
          "pszIconPath"
        ],
        [
          "WORD*",
          "piIconIndex"
        ],
        [
          "WORD*",
          "piIconId"
        ]
      ],
      "call": "std"
    },
    "ExtractAssociatedIconW": {
      "args": [
        [
          "HINSTANCE",
          "hInst"
        ],
        [
          "LPWSTR",
          "pszIconPath"
        ],
        [
          "WORD*",
          "piIcon"
        ]
      ],
      "call": "std"
    },
    "ExtractIconA": {
      "args": [
        [
          "HINSTANCE",
          "hInst"
        ],
        [
          "LPCSTR",
          "lpszExeFileName"
        ],
        [
          "UINT",
          "nIconIndex"
        ]
      ],
      "call": "std"
    },
    "ExtractIconExA": {
      "args": [
        [
          "LPCSTR",
          "lpszFile"
        ],
        [
          "int",
          "nIconIndex"
        ],
        [
          "HICON*",
          "phiconLarge"
        ],
        [
          "HICON*",
          "phiconSmall"
        ],
        [
          "UINT",
          "nIcons"
        ]
      ],
      "call": "std"
    },
    "ExtractIconExW": {
      "args": [
        [
          "LPCWSTR",
          "lpszFile"
        ],
        [
          "int",
          "nIconIndex"
        ],
        [
          "HICON*",
          "phiconLarge"
        ],
        [
          "HICON*",
          "phiconSmall"
        ],
        [
          "UINT",
          "nIcons"
        ]
      ],
      "call": "std"
    },
    "ExtractIconW": {
      "args": [
        [
          "HINSTANCE",
          "hInst"
        ],
        [
          "LPCWSTR",
          "lpszExeFileName"
        ],
        [
          "UINT",
          "nIconIndex"
        ]
      ],
      "call": "std"
    },
    "FindExecutableA": {
      "args": [
        [
          "LPCSTR",
          "lpFile"
        ],
        [
          "LPCSTR",
          "lpDirectory"
        ],
        [
          "LPSTR",
          "lpResult"
        ]
      ],
      "call": "std"
    },
    "FindExecutableW": {
      "args": [
        [
          "LPCWSTR",
          "lpFile"
        ],
        [
          "LPCWSTR",
          "lpDirectory"
        ],
        [
          "LPWSTR",
          "lpResult"
        ]
      ],
      "call": "std"
    },
    "GetFileNameFromBrowse": {
      "args": [
        [
          "HWND",
          "hwnd"
        ],
        [
          "LPWSTR",
          "pszFilePath"
        ],
        [
          "UINT",
          "cchFilePath"
        ],
        [
          "LPCWSTR",
          "pszWorkingDir"
        ],
        [
          "LPCWSTR",
          "pszDefExt"
        ],
        [
          "LPCWSTR",
          "pszFilters"
        ],
        [
          "LPCWSTR",
          "pszTitle"
        ]
      ],
      "call": "std"
    },
    "ILAppendID": {
      "args": [
        [
          "PIDLIST_RELATIVE",
          "pidl"
        ],
        [
          "LPCSHITEMID",
          "pmkid"
        ],
        [
          "BOOL",
          "fAppend"
        ]
      ],
      "call": "std"
    },
    "ILClone": {
      "args": [
        [
          "PCUIDLIST_RELATIVE",
          "pidl"
        ]
      ],
      "call": "std"
    },
    "ILCloneFirst": {
      "args": [
        [
          "PCUIDLIST_RELATIVE",
          "pidl"
        ]
      ],
      "call": "std"
    },
    "ILCombine": {
      "args": [
        [
          "PCIDLIST_ABSOLUTE",
          "pidl1"
        ],
        [
          "PCUIDLIST_RELATIVE",
          "pidl2"
        ]
      ],
      "call": "std"
    },
    "ILCreateFromPath": {
      "args": [
        [
          "LPCTSTR",
          "pszPath"
        ]
      ],
      "call": "std"
    },
    "ILCreateFromPathA": {
      "args": [
        [
          "LPCSTR",
          "pszPath"
        ]
      ],
      "call": "std"
    },
    "ILCreateFromPathW": {
      "args": [
        [
          "LPCWSTR",
          "pszPath"
        ]
      ],
      "call": "std"
    },
    "ILFindChild": {
      "args": [
        [
          "PIDLIST_ABSOLUTE",
          "pidlParent"
        ],
        [
          "PCIDLIST_ABSOLUTE",
          "pidlChild"
        ]
      ],
      "call": "std"
    },
    "ILFree": {
      "args": [
        [
          "PIDLIST_RELATIVE",
          "pidl"
        ]
      ],
      "call": "std"
    },
    "ILGetNext": {
      "args": [
        [
          "PCUIDLIST_RELATIVE",
          "pidl"
        ]
      ],
      "call": "std"
    },
    "ILGetSize": {
      "args": [
        [
          "PCUIDLIST_RELATIVE",
          "pidl"
        ]
      ],
      "call": "std"
    },
    "ILIsEqual": {
      "args": [
        [
          "PCIDLIST_ABSOLUTE",
          "pidl1"
        ],
        [
          "PCIDLIST_ABSOLUTE",
          "pidl2"
        ]
      ],
      "call": "std"
    },
    "ILIsParent": {
      "args": [
        [
          "PCIDLIST_ABSOLUTE",
          "pidl1"
        ],
        [
          "PCIDLIST_ABSOLUTE",
          "pidl2"
        ],
        [
          "BOOL",
          "fImmediate"
        ]
      ],
      "call": "std"
    },
    "ILRemoveLastID": {
      "args": [
        [
          "PUIDLIST_RELATIVE",
          "pidl"
        ]
      ],
      "call": "std"
    },
    "InitNetworkAddressControl": {
      "args": [],
      "call": "std"
    },
    "IsLFNDriveA": {
      "args": [
        [
          "LPCSTR",
          "pszPath"
        ]
      ],
      "call": "std"
    },
    "IsLFNDriveW": {
      "args": [
        [
          "LPCWSTR",
          "pszPath"
        ]
      ],
      "call": "std"
    },
    "IsNetDrive": {
      "args": [
        [
          "int",
          "iDrive"
        ]
      ],
      "call": "std"
    },
    "IsUserAnAdmin": {
      "args": [],
      "call": "std"
    },
    "PathCleanupSpec": {
      "args": [
        [
          "LPCWSTR",
          "pszDir"
        ],
        [
          "LPWSTR",
          "pszSpec"
        ]
      ],
      "call": "std"
    },
    "PathGetShortPath": {
      "args": [
        [
          "LPWSTR",
          "pszLongPath"
        ]
      ],
      "call": "std"
    },
    "PathIsExe": {
      "args": [
        [
          "LPCWSTR",
          "pszPath"
        ]
      ],
      "call": "std"
    },
    "PathIsSlowA": {
      "args": [
        [
          "LPCSTR",
          "pszFile"
        ],
        [
          "DWORD",
          "dwAttr"
        ]
      ],
      "call": "std"
    },
    "PathIsSlowW": {
      "args": [
        [
          "LPCWSTR",
          "pszFile"
        ],
        [
          "DWORD",
          "dwAttr"
        ]
      ],
      "call": "std"
    },
    "PathMakeUniqueName": {
      "args": [
        [
          "LPWSTR",
          "pszUniqueName"
        ],
        [
          "UINT",
          "cchMax"
        ],
        [
          "LPCWSTR",
          "pszTemplate"
        ],
        [
          "LPCWSTR",
          "pszLongPlate"
        ],
        [
          "LPCWSTR",
          "pszDir"
        ]
      ],
      "call": "std"
    },
    "PathQualify": {
      "args": [
        [
          "LPWSTR",
          "psz"
        ]
      ],
      "call": "std"
    },
    "PathResolve": {
      "args": [
        [
          "LPWSTR",
          "lpszPath"
        ],
        [
          "PZPCWSTR",
          "dirs"
        ],
        [
          "UINT",
          "fFlags"
        ]
      ],
      "call": "std"
    },
    "PathYetAnotherMakeUniqueName": {
      "args": [
        [
          "LPWSTR",
          "pszUniqueName"
        ],
        [
          "LPCWSTR",
          "pszPath"
        ],
        [
          "LPCWSTR",
          "pszShort"
        ],
        [
          "LPCWSTR",
          "pszFileSpec"
        ]
      ],
      "call": "std"
    },
    "PickIconDlg": {
      "args": [
        [
          "HWND",
          "hwnd"
        ],
        [
          "LPWSTR",
          "pszIconPath"
        ],
        [
          "UINT",
          "cchIconPath"
        ],
        [
          "int*",
          "piIconIndex"
        ]
      ],
      "call": "std"
    },
    "PifMgr_CloseProperties": {
      "args": [
        [
          "HANDLE",
          "hProps"
        ],
        [
          "UINT",
          "flOpt"
        ]
      ],
      "call": "std"
    },
    "PifMgr_GetProperties": {
      "args": [
        [
          "HANDLE",
          "hProps"
        ],
        [
          "LPCSTR",
          "pszGroup"
        ],
        [
          "void*",
          "lpProps"
        ],
        [
          "int",
          "cbProps"
        ],
        [
          "UINT",
          "flOpt"
        ]
      ],
      "call": "std"
    },
    "PifMgr_OpenProperties": {
      "args": [
        [
          "LPCWSTR",
          "pszApp"
        ],
        [
          "LPCWSTR",
          "pszPIF"
        ],
        [
          "UINT",
          "hInf"
        ],
        [
          "UINT",
          "flOpt"
        ]
      ],
      "call": "std"
    },
    "PifMgr_SetProperties": {
      "args": [
        [
          "HANDLE",
          "hProps"
        ],
        [
          "LPCSTR",
          "pszGroup"
        ],
        [
          "void*",
          "lpProps"
        ],
        [
          "int",
          "cbProps"
        ],
        [
          "UINT",
          "flOpt"
        ]
      ],
      "call": "std"
    },
    "ReadCabinetState": {
      "args": [
        [
          "CABINETSTATE*",
          "pcs"
        ],
        [
          "int",
          "cLength"
        ]
      ],
      "call": "std"
    },
    "RealDriveType": {
      "args": [
        [
          "int",
          "iDrive"
        ],
        [
          "BOOL",
          "fOKToHitNet"
        ]
      ],
      "call": "std"
    },
    "RestartDialog": {
      "args": [
        [
          "HWND",
          "hwnd"
        ],
        [
          "LPCWSTR",
          "lpPrompt"
        ],
        [
          "DWORD",
          "dwReturn"
        ]
      ],
      "call": "std"
    },
    "RestartDialogEx": {
      "args": [
        [
          "HWND",
          "hwnd"
        ],
        [
          "LPCWSTR",
          "lpPrompt"
        ],
        [
          "DWORD",
          "dwReturn"
        ],
        [
          "DWORD",
          "dwReasonCode"
        ]
      ],
      "call": "std"
    },
    "SHAddFromPropSheetExtArray": {
      "args": [
        [
          "HPSXA",
          "hpsxa"
        ],
        [
          "LPFNADDPROPSHEETPAGE",
          "lpfnAddPage"
        ],
        [
          "LPARAM",
          "lParam"
        ]
      ],
      "call": "std"
    },
    "SHAddToRecentDocs": {
      "args": [
        [
          "UINT",
          "uFlags"
        ],
        [
          "LPCVOID",
          "pv"
        ]
      ],
      "call": "std"
    },
    "SHAppBarMessage": {
      "args": [
        [
          "DWORD",
          "dwMessage"
        ],
        [
          "PAPPBARDATA",
          "pData"
        ]
      ],
      "call": "std"
    },
    "SHBrowseForFolderA": {
      "args": [
        [
          "LPBROWSEINFOA",
          "lpbi"
        ]
      ],
      "call": "std"
    },
    "SHBrowseForFolderW": {
      "args": [
        [
          "LPBROWSEINFOW",
          "lpbi"
        ]
      ],
      "call": "std"
    },
    "SHChangeNotification_Lock": {
      "args": [
        [
          "HANDLE",
          "hChange"
        ],
        [
          "DWORD",
          "dwProcId"
        ],
        [
          "*",
          "pppidl"
        ],
        [
          "LONG*",
          "plEvent"
        ]
      ],
      "call": "std"
    },
    "SHChangeNotification_Unlock": {
      "args": [
        [
          "HANDLE",
          "hLock"
        ]
      ],
      "call": "std"
    },
    "SHChangeNotify": {
      "args": [
        [
          "LONG",
          "wEventId"
        ],
        [
          "UINT",
          "uFlags"
        ],
        [
          "LPCVOID",
          "dwItem1"
        ],
        [
          "LPCVOID",
          "dwItem2"
        ]
      ],
      "call": "std"
    },
    "SHChangeNotifyDeregister": {
      "args": [
        [
          "long",
          "ulID"
        ]
      ],
      "call": "std"
    },
    "SHChangeNotifyRegister": {
      "args": [
        [
          "HWND",
          "hwnd"
        ],
        [
          "int",
          "fSources"
        ],
        [
          "LONG",
          "fEvents"
        ],
        [
          "UINT",
          "wMsg"
        ],
        [
          "int",
          "cEntries"
        ],
        [
          "SHChangeNotifyEntry*",
          "pshcne"
        ]
      ],
      "call": "std"
    },
    "SHCloneSpecialIDList": {
      "args": [
        [
          "HWND",
          "hwnd"
        ],
        [
          "int",
          "csidl"
        ],
        [
          "BOOL",
          "fCreate"
        ]
      ],
      "call": "std"
    },
    "SHCreateDirectory": {
      "args": [
        [
          "HWND",
          "hwnd"
        ],
        [
          "LPCWSTR",
          "pszPath"
        ]
      ],
      "call": "std"
    },
    "SHCreateDirectoryExA": {
      "args": [
        [
          "HWND",
          "hwnd"
        ],
        [
          "LPCSTR",
          "pszPath"
        ],
        [
          "SECURITY_ATTRIBUTES*",
          "psa"
        ]
      ],
      "call": "std"
    },
    "SHCreateDirectoryExW": {
      "args": [
        [
          "HWND",
          "hwnd"
        ],
        [
          "LPCWSTR",
          "pszPath"
        ],
        [
          "SECURITY_ATTRIBUTES*",
          "psa"
        ]
      ],
      "call": "std"
    },
    "SHCreateProcessAsUserW": {
      "args": [
        [
          "PSHCREATEPROCESSINFOW",
          "pscpi"
        ]
      ],
      "call": "std"
    },
    "SHCreatePropSheetExtArray": {
      "args": [
        [
          "HKEY",
          "hKey"
        ],
        [
          "LPCWSTR",
          "pszSubKey"
        ],
        [
          "UINT",
          "max_iface"
        ]
      ],
      "call": "std"
    },
    "SHDestroyPropSheetExtArray": {
      "args": [
        [
          "HPSXA",
          "hpsxa"
        ]
      ],
      "call": "std"
    },
    "SHFileOperationA": {
      "args": [
        [
          "LPSHFILEOPSTRUCTA",
          "lpFileOp"
        ]
      ],
      "call": "std"
    },
    "SHFileOperationW": {
      "args": [
        [
          "LPSHFILEOPSTRUCTW",
          "lpFileOp"
        ]
      ],
      "call": "std"
    },
    "SHFindFiles": {
      "args": [
        [
          "PCIDLIST_ABSOLUTE",
          "pidlFolder"
        ],
        [
          "PCIDLIST_ABSOLUTE",
          "pidlSaveFile"
        ]
      ],
      "call": "std"
    },
    "SHFlushSFCache": {
      "args": [],
      "call": "std"
    },
    "SHFormatDrive": {
      "args": [
        [
          "HWND",
          "hwnd"
        ],
        [
          "UINT",
          "drive"
        ],
        [
          "UINT",
          "fmtID"
        ],
        [
          "UINT",
          "options"
        ]
      ],
      "call": "std"
    },
    "SHFree": {
      "args": [
        [
          "void*",
          "pv"
        ]
      ],
      "call": "std"
    },
    "SHFreeNameMappings": {
      "args": [
        [
          "HANDLE",
          "hNameMappings"
        ]
      ],
      "call": "std"
    },
    "SHGetDiskFreeSpaceExA": {
      "args": [
        [
          "LPCSTR",
          "pszDirectoryName"
        ],
        [
          "ULARGE_INTEGER*",
          "pulFreeBytesAvailableToCaller"
        ],
        [
          "ULARGE_INTEGER*",
          "pulTotalNumberOfBytes"
        ],
        [
          "ULARGE_INTEGER*",
          "pulTotalNumberOfFreeBytes"
        ]
      ],
      "call": "std"
    },
    "SHGetDiskFreeSpaceExW": {
      "args": [
        [
          "LPCWSTR",
          "pszDirectoryName"
        ],
        [
          "ULARGE_INTEGER*",
          "pulFreeBytesAvailableToCaller"
        ],
        [
          "ULARGE_INTEGER*",
          "pulTotalNumberOfBytes"
        ],
        [
          "ULARGE_INTEGER*",
          "pulTotalNumberOfFreeBytes"
        ]
      ],
      "call": "std"
    },
    "SHGetFileInfoA": {
      "args": [
        [
          "LPCSTR",
          "pszPath"
        ],
        [
          "DWORD",
          "dwFileAttributes"
        ],
        [
          "SHFILEINFOA*",
          "psfi"
        ],
        [
          "UINT",
          "cbFileInfo"
        ],
        [
          "UINT",
          "uFlags"
        ]
      ],
      "call": "std"
    },
    "SHGetFileInfoW": {
      "args": [
        [
          "LPCWSTR",
          "pszPath"
        ],
        [
          "DWORD",
          "dwFileAttributes"
        ],
        [
          "SHFILEINFOW*",
          "psfi"
        ],
        [
          "UINT",
          "cbFileInfo"
        ],
        [
          "UINT",
          "uFlags"
        ]
      ],
      "call": "std"
    },
    "SHGetIconOverlayIndexA": {
      "args": [
        [
          "LPCSTR",
          "pszIconPath"
        ],
        [
          "int",
          "iIconIndex"
        ]
      ],
      "call": "std"
    },
    "SHGetIconOverlayIndexW": {
      "args": [
        [
          "LPCWSTR",
          "pszIconPath"
        ],
        [
          "int",
          "iIconIndex"
        ]
      ],
      "call": "std"
    },
    "SHGetNewLinkInfoA": {
      "args": [
        [
          "LPCSTR",
          "pszLinkTo"
        ],
        [
          "LPCSTR",
          "pszDir"
        ],
        [
          "LPSTR",
          "pszName"
        ],
        [
          "BOOL*",
          "pfMustCopy"
        ],
        [
          "UINT",
          "uFlags"
        ]
      ],
      "call": "std"
    },
    "SHGetNewLinkInfoW": {
      "args": [
        [
          "LPCWSTR",
          "pszLinkTo"
        ],
        [
          "LPCWSTR",
          "pszDir"
        ],
        [
          "LPWSTR",
          "pszName"
        ],
        [
          "BOOL*",
          "pfMustCopy"
        ],
        [
          "UINT",
          "uFlags"
        ]
      ],
      "call": "std"
    },
    "SHGetPathFromIDListA": {
      "args": [
        [
          "PCIDLIST_ABSOLUTE",
          "pidl"
        ],
        [
          "LPSTR",
          "pszPath"
        ]
      ],
      "call": "std"
    },
    "SHGetPathFromIDListEx": {
      "args": [
        [
          "PCIDLIST_ABSOLUTE",
          "pidl"
        ],
        [
          "PWSTR",
          "pszPath"
        ],
        [
          "DWORD",
          "cchPath"
        ],
        [
          "GPFIDL_FLAGS",
          "uOpts"
        ]
      ],
      "call": "std"
    },
    "SHGetPathFromIDListW": {
      "args": [
        [
          "PCIDLIST_ABSOLUTE",
          "pidl"
        ],
        [
          "LPWSTR",
          "pszPath"
        ]
      ],
      "call": "std"
    },
    "SHGetSetSettings": {
      "args": [
        [
          "LPSHELLSTATE",
          "lpss"
        ],
        [
          "DWORD",
          "dwMask"
        ],
        [
          "BOOL",
          "bSet"
        ]
      ],
      "call": "std"
    },
    "SHGetSettings": {
      "args": [
        [
          "SHELLFLAGSTATE*",
          "psfs"
        ],
        [
          "DWORD",
          "dwMask"
        ]
      ],
      "call": "std"
    },
    "SHGetSpecialFolderPathA": {
      "args": [
        [
          "HWND",
          "hwnd"
        ],
        [
          "LPSTR",
          "pszPath"
        ],
        [
          "int",
          "csidl"
        ],
        [
          "BOOL",
          "fCreate"
        ]
      ],
      "call": "std"
    },
    "SHGetSpecialFolderPathW": {
      "args": [
        [
          "HWND",
          "hwnd"
        ],
        [
          "LPWSTR",
          "pszPath"
        ],
        [
          "int",
          "csidl"
        ],
        [
          "BOOL",
          "fCreate"
        ]
      ],
      "call": "std"
    },
    "SHHandleUpdateImage": {
      "args": [
        [
          "PCIDLIST_ABSOLUTE",
          "pidlExtra"
        ]
      ],
      "call": "std"
    },
    "SHInvokePrinterCommandA": {
      "args": [
        [
          "HWND",
          "hwnd"
        ],
        [
          "UINT",
          "uAction"
        ],
        [
          "LPCSTR",
          "lpBuf1"
        ],
        [
          "LPCSTR",
          "lpBuf2"
        ],
        [
          "BOOL",
          "fModal"
        ]
      ],
      "call": "std"
    },
    "SHInvokePrinterCommandW": {
      "args": [
        [
          "HWND",
          "hwnd"
        ],
        [
          "UINT",
          "uAction"
        ],
        [
          "LPCWSTR",
          "lpBuf1"
        ],
        [
          "LPCWSTR",
          "lpBuf2"
        ],
        [
          "BOOL",
          "fModal"
        ]
      ],
      "call": "std"
    },
    "SHMapPIDLToSystemImageListIndex": {
      "args": [
        [
          "IShellFolder*",
          "pshf"
        ],
        [
          "PCUITEMID_CHILD",
          "pidl"
        ],
        [
          "int*",
          "piIndexSel"
        ]
      ],
      "call": "std"
    },
    "SHObjectProperties": {
      "args": [
        [
          "HWND",
          "hwnd"
        ],
        [
          "DWORD",
          "shopObjectType"
        ],
        [
          "PCWSTR",
          "pszObjectName"
        ],
        [
          "PCWSTR",
          "pszPropertyPage"
        ]
      ],
      "call": "std"
    },
    "SHOpenPropSheetW": {
      "args": [
        [
          "LPCWSTR",
          "pszCaption"
        ],
        [
          "HKEY",
          "ahkeys[]"
        ],
        [
          "UINT",
          "cikeys"
        ],
        [
          "CLSID*",
          "pclsidDefault"
        ],
        [
          "IDataObject*",
          "pdtobj"
        ],
        [
          "IShellBrowser*",
          "psb"
        ],
        [
          "LPCWSTR",
          "pStartPage"
        ]
      ],
      "call": "std"
    },
    "SHReplaceFromPropSheetExtArray": {
      "args": [
        [
          "HPSXA",
          "hpsxa"
        ],
        [
          "UINT",
          "uPageID"
        ],
        [
          "LPFNADDPROPSHEETPAGE",
          "lpfnReplaceWith"
        ],
        [
          "LPARAM",
          "lParam"
        ]
      ],
      "call": "std"
    },
    "SHRestricted": {
      "args": [
        [
          "RESTRICTIONS",
          "rest"
        ]
      ],
      "call": "std"
    },
    "SHSetInstanceExplorer": {
      "args": [
        [
          "IUnknown*",
          "punk"
        ]
      ],
      "call": "std"
    },
    "SHShellFolderView_Message": {
      "args": [
        [
          "HWND",
          "hwndMain"
        ],
        [
          "UINT",
          "uMsg"
        ],
        [
          "LPARAM",
          "lParam"
        ]
      ],
      "call": "std"
    },
    "SHSimpleIDListFromPath": {
      "args": [
        [
          "LPCWSTR",
          "pszPath"
        ]
      ],
      "call": "std"
    },
    "SHUpdateImageA": {
      "args": [
        [
          "LPCSTR",
          "pszHashItem"
        ],
        [
          "int",
          "iIndex"
        ],
        [
          "UINT",
          "uFlags"
        ],
        [
          "int",
          "iImageIndex"
        ]
      ],
      "call": "std"
    },
    "SHUpdateImageW": {
      "args": [
        [
          "LPCWSTR",
          "pszHashItem"
        ],
        [
          "int",
          "iIndex"
        ],
        [
          "UINT",
          "uFlags"
        ],
        [
          "int",
          "iImageIndex"
        ]
      ],
      "call": "std"
    },
    "SHValidateUNC": {
      "args": [
        [
          "HWND",
          "hwndOwner"
        ],
        [
          "LPWSTR",
          "pszFile"
        ],
        [
          "UINT",
          "fConnect"
        ]
      ],
      "call": "std"
    },
    "ShellAboutA": {
      "args": [
        [
          "HWND",
          "hWnd"
        ],
        [
          "LPCSTR",
          "szApp"
        ],
        [
          "LPCSTR",
          "szOtherStuff"
        ],
        [
          "HICON",
          "hIcon"
        ]
      ],
      "call": "std"
    },
    "ShellAboutW": {
      "args": [
        [
          "HWND",
          "hWnd"
        ],
        [
          "LPCWSTR",
          "szApp"
        ],
        [
          "LPCWSTR",
          "szOtherStuff"
        ],
        [
          "HICON",
          "hIcon"
        ]
      ],
      "call": "std"
    },
    "ShellExecuteA": {
      "args": [
        [
          "HWND",
          "hwnd"
        ],
        [
          "LPCSTR",
          "lpOperation"
        ],
        [
          "LPCSTR",
          "lpFile"
        ],
        [
          "LPCSTR",
          "lpParameters"
        ],
        [
          "LPCSTR",
          "lpDirectory"
        ],
        [
          "INT",
          "nShowCmd"
        ]
      ],
      "call": "std"
    },
    "ShellExecuteExA": {
      "args": [
        [
          "SHELLEXECUTEINFOA*",
          "pExecInfo"
        ]
      ],
      "call": "std"
    },
    "ShellExecuteExW": {
      "args": [
        [
          "SHELLEXECUTEINFOW*",
          "pExecInfo"
        ]
      ],
      "call": "std"
    },
    "ShellExecuteW": {
      "args": [
        [
          "HWND",
          "hwnd"
        ],
        [
          "LPCWSTR",
          "lpOperation"
        ],
        [
          "LPCWSTR",
          "lpFile"
        ],
        [
          "LPCWSTR",
          "lpParameters"
        ],
        [
          "LPCWSTR",
          "lpDirectory"
        ],
        [
          "INT",
          "nShowCmd"
        ]
      ],
      "call": "std"
    },
    "ShellMessageBoxA": {
      "args": [
        [
          "HINSTANCE",
          "hAppInst"
        ],
        [
          "HWND",
          "hWnd"
        ],
        [
          "LPCSTR",
          "lpcText"
        ],
        [
          "LPCSTR",
          "lpcTitle"
        ],
        [
          "UINT",
          "fuStyle"
        ],
        [
          "..."
        ]
      ],
      "call": "std"
    },
    "ShellMessageBoxW": {
      "args": [
        [
          "HINSTANCE",
          "hAppInst"
        ],
        [
          "HWND",
          "hWnd"
        ],
        [
          "LPCWSTR",
          "lpcText"
        ],
        [
          "LPCWSTR",
          "lpcTitle"
        ],
        [
          "UINT",
          "fuStyle"
        ],
        [
          "..."
        ]
      ],
      "call": "std"
    },
    "Shell_GetCachedImageIndex": {
      "args": [
        [
          "LPCWSTR",
          "pwszIconPath"
        ],
        [
          "int",
          "iIconIndex"
        ],
        [
          "UINT",
          "uIconFlags"
        ]
      ],
      "call": "std"
    },
    "Shell_GetCachedImageIndexA": {
      "args": [
        [
          "LPCSTR",
          "pszIconPath"
        ],
        [
          "int",
          "iIconIndex"
        ],
        [
          "UINT",
          "uIconFlags"
        ]
      ],
      "call": "std"
    },
    "Shell_GetCachedImageIndexW": {
      "args": [
        [
          "LPCWSTR",
          "pszIconPath"
        ],
        [
          "int",
          "iIconIndex"
        ],
        [
          "UINT",
          "uIconFlags"
        ]
      ],
      "call": "std"
    },
    "Shell_GetImageLists": {
      "args": [
        [
          "HIMAGELIST*",
          "phiml"
        ],
        [
          "HIMAGELIST*",
          "phimlSmall"
        ]
      ],
      "call": "std"
    },
    "Shell_MergeMenus": {
      "args": [
        [
          "HMENU",
          "hmDst"
        ],
        [
          "HMENU",
          "hmSrc"
        ],
        [
          "UINT",
          "uInsert"
        ],
        [
          "UINT",
          "uIDAdjust"
        ],
        [
          "UINT",
          "uIDAdjustMax"
        ],
        [
          "ULONG",
          "uFlags"
        ]
      ],
      "call": "std"
    },
    "Shell_NotifyIconA": {
      "args": [
        [
          "DWORD",
          "dwMessage"
        ],
        [
          "PNOTIFYICONDATAA",
          "lpData"
        ]
      ],
      "call": "std"
    },
    "Shell_NotifyIconW": {
      "args": [
        [
          "DWORD",
          "dwMessage"
        ],
        [
          "PNOTIFYICONDATAW",
          "lpData"
        ]
      ],
      "call": "std"
    },
    "SignalFileOpen": {
      "args": [
        [
          "PCIDLIST_ABSOLUTE",
          "pidl"
        ]
      ],
      "call": "std"
    },
    "StrChrA": {
      "args": [
        [
          "LPCSTR",
          "lpStart"
        ],
        [
          "WORD",
          "wMatch"
        ]
      ],
      "call": "std"
    },
    "StrChrIA": {
      "args": [
        [
          "LPCSTR",
          "lpStart"
        ],
        [
          "WORD",
          "wMatch"
        ]
      ],
      "call": "std"
    },
    "StrChrIW": {
      "args": [
        [
          "LPCWSTR",
          "lpStart"
        ],
        [
          "WCHAR",
          "wMatch"
        ]
      ],
      "call": "std"
    },
    "StrChrW": {
      "args": [
        [
          "LPCWSTR",
          "lpStart"
        ],
        [
          "WCHAR",
          "wMatch"
        ]
      ],
      "call": "std"
    },
    "StrCmpNA": {
      "args": [
        [
          "LPCSTR",
          "lpStr1"
        ],
        [
          "LPCSTR",
          "lpStr2"
        ],
        [
          "int",
          "nChar"
        ]
      ],
      "call": "std"
    },
    "StrCmpNIA": {
      "args": [
        [
          "LPCSTR",
          "lpStr1"
        ],
        [
          "LPCSTR",
          "lpStr2"
        ],
        [
          "int",
          "nChar"
        ]
      ],
      "call": "std"
    },
    "StrCmpNIW": {
      "args": [
        [
          "LPCWSTR",
          "lpStr1"
        ],
        [
          "LPCWSTR",
          "lpStr2"
        ],
        [
          "int",
          "nChar"
        ]
      ],
      "call": "std"
    },
    "StrCmpNW": {
      "args": [
        [
          "LPCWSTR",
          "lpStr1"
        ],
        [
          "LPCWSTR",
          "lpStr2"
        ],
        [
          "int",
          "nChar"
        ]
      ],
      "call": "std"
    },
    "StrRChrA": {
      "args": [
        [
          "LPCSTR",
          "lpStart"
        ],
        [
          "LPCSTR",
          "lpEnd"
        ],
        [
          "WORD",
          "wMatch"
        ]
      ],
      "call": "std"
    },
    "StrRChrIA": {
      "args": [
        [
          "LPCSTR",
          "lpStart"
        ],
        [
          "LPCSTR",
          "lpEnd"
        ],
        [
          "WORD",
          "wMatch"
        ]
      ],
      "call": "std"
    },
    "StrRChrIW": {
      "args": [
        [
          "LPCWSTR",
          "lpStart"
        ],
        [
          "LPCWSTR",
          "lpEnd"
        ],
        [
          "WCHAR",
          "wMatch"
        ]
      ],
      "call": "std"
    },
    "StrRChrW": {
      "args": [
        [
          "LPCWSTR",
          "lpStart"
        ],
        [
          "LPCWSTR",
          "lpEnd"
        ],
        [
          "WCHAR",
          "wMatch"
        ]
      ],
      "call": "std"
    },
    "StrRStrIA": {
      "args": [
        [
          "LPCSTR",
          "lpSource"
        ],
        [
          "LPCSTR",
          "lpLast"
        ],
        [
          "LPCSTR",
          "lpSrch"
        ]
      ],
      "call": "std"
    },
    "StrRStrIW": {
      "args": [
        [
          "LPCWSTR",
          "lpSource"
        ],
        [
          "LPCWSTR",
          "lpLast"
        ],
        [
          "LPCWSTR",
          "lpSrch"
        ]
      ],
      "call": "std"
    },
    "StrStrA": {
      "args": [
        [
          "LPCSTR",
          "lpFirst"
        ],
        [
          "LPCSTR",
          "lpSrch"
        ]
      ],
      "call": "std"
    },
    "StrStrIA": {
      "args": [
        [
          "LPCSTR",
          "lpFirst"
        ],
        [
          "LPCSTR",
          "lpSrch"
        ]
      ],
      "call": "std"
    },
    "StrStrIW": {
      "args": [
        [
          "LPCWSTR",
          "lpFirst"
        ],
        [
          "LPCWSTR",
          "lpSrch"
        ]
      ],
      "call": "std"
    },
    "StrStrW": {
      "args": [
        [
          "LPCWSTR",
          "lpFirst"
        ],
        [
          "LPCWSTR",
          "lpSrch"
        ]
      ],
      "call": "std"
    },
    "Win32DeleteFile": {
      "args": [
        [
          "LPCWSTR",
          "pszPath"
        ]
      ],
      "call": "std"
    },
    "WriteCabinetState": {
      "args": [
        [
          "CABINETSTATE*",
          "pcs"
        ]
      ],
      "call": "std"
    }
  },
  "imagebase": 1769996288
}