{
  "exports": {
    "CoInstall": {
      "args": [
        [
          "*",
          "pbc"
        ],
        [
          "DWORD",
          "dwFlags"
        ],
        [
          "*",
          "pClassSpec"
        ],
        [
          "QUERYCONTEXT*",
          "pQuery"
        ],
        [
          "LPWSTR",
          "pszCodeBase"
        ]
      ],
      "call": "std"
    },
    "IsLoggingEnabledA": {
      "args": [
        [
          "LPCSTR",
          "pszUrl"
        ]
      ],
      "call": "std"
    },
    "IsLoggingEnabledW": {
      "args": [
        [
          "LPCWSTR",
          "pwszUrl"
        ]
      ],
      "call": "std"
    },
    "WriteHitLogging": {
      "args": [
        [
          "LPHIT_LOGGING_INFO",
          "lpLogginginfo"
        ]
      ],
      "call": "std"
    }
  },
  "imagebase": 440401920
}