{
  "exports": {
    "CommitUrlCacheEntryA": {
      "args": [
        [
          "LPCSTR",
          "lpszUrlName"
        ],
        [
          "LPCSTR",
          "lpszLocalFileName"
        ],
        [
          "FILETIME",
          "ExpireTime"
        ],
        [
          "FILETIME",
          "LastModifiedTime"
        ],
        [
          "DWORD",
          "CacheEntryType"
        ],
        [
          "LPBYTE",
          "lpHeaderInfo"
        ],
        [
          "DWORD",
          "dwHeaderSize"
        ],
        [
          "LPCSTR",
          "lpszFileExtension"
        ],
        [
          "LPCSTR",
          "lpszOriginalUrl"
        ]
      ],
      "call": "std"
    },
    "CommitUrlCacheEntryW": {
      "args": [
        [
          "LPCWSTR",
          "lpszUrlName"
        ],
        [
          "LPCWSTR",
          "lpszLocalFileName"
        ],
        [
          "FILETIME",
          "ExpireTime"
        ],
        [
          "FILETIME",
          "LastModifiedTime"
        ],
        [
          "DWORD",
          "CacheEntryType"
        ],
        [
          "LPWSTR",
          "lpszHeaderInfo"
        ],
        [
          "DWORD",
          "dwHeaders"
        ],
        [
          "LPCWSTR",
          "lpszFileExtension"
        ],
        [
          "LPCWSTR",
          "lpszOriginalUrl"
        ]
      ],
      "call": "std"
    },
    "CreateMD5SSOHash": {
      "args": [
        [
          "PWSTR",
          "pszChallengeInfo"
        ],
        [
          "PWSTR",
          "pwszRealm"
        ],
        [
          "PWSTR",
          "pwszTarget"
        ],
        [
          "PBYTE",
          "pbHexHash"
        ]
      ],
      "call": "std"
    },
    "CreateUrlCacheContainerA": {
      "args": [
        [
          "LPCSTR",
          "Name"
        ],
        [
          "LPCSTR",
          "lpCachePrefix"
        ],
        [
          "LPCSTR",
          "lpszCachePath"
        ],
        [
          "DWORD",
          "KBCacheLimit"
        ],
        [
          "DWORD",
          "dwContainerType"
        ],
        [
          "DWORD",
          "dwOptions"
        ],
        [
          "LPVOID",
          "pvBuffer"
        ],
        [
          "LPDWORD",
          "cbBuffer"
        ]
      ],
      "call": "std"
    },
    "CreateUrlCacheContainerW": {
      "args": [
        [
          "LPCWSTR",
          "Name"
        ],
        [
          "LPCWSTR",
          "lpCachePrefix"
        ],
        [
          "LPCWSTR",
          "lpszCachePath"
        ],
        [
          "DWORD",
          "KBCacheLimit"
        ],
        [
          "DWORD",
          "dwContainerType"
        ],
        [
          "DWORD",
          "dwOptions"
        ],
        [
          "LPVOID",
          "pvBuffer"
        ],
        [
          "LPDWORD",
          "cbBuffer"
        ]
      ],
      "call": "std"
    },
    "CreateUrlCacheEntryA": {
      "args": [
        [
          "LPCSTR",
          "lpszUrlName"
        ],
        [
          "DWORD",
          "dwExpectedFileSize"
        ],
        [
          "LPCSTR",
          "lpszFileExtension"
        ],
        [
          "LPSTR",
          "lpszFileName"
        ],
        [
          "DWORD",
          "dwReserved"
        ]
      ],
      "call": "std"
    },
    "CreateUrlCacheEntryW": {
      "args": [
        [
          "LPCWSTR",
          "lpszUrlName"
        ],
        [
          "DWORD",
          "dwExpectedFileSize"
        ],
        [
          "LPCWSTR",
          "lpszFileExtension"
        ],
        [
          "LPWSTR",
          "lpszFileName"
        ],
        [
          "DWORD",
          "dwReserved"
        ]
      ],
      "call": "std"
    },
    "CreateUrlCacheGroup": {
      "args": [
        [
          "DWORD",
          "dwFlags"
        ],
        [
          "LPVOID",
          "lpReserved"
        ]
      ],
      "call": "std"
    },
    "DeleteIE3Cache": {
      "args": [
        [
          "HWND",
          "hwnd"
        ],
        [
          "HINSTANCE",
          "hinst"
        ],
        [
          "LPSTR",
          "lpszCmd"
        ],
        [
          "int",
          "nCmdShow"
        ]
      ],
      "call": "std"
    },
    "DeleteUrlCacheContainerA": {
      "args": [
        [
          "LPCSTR",
          "Name"
        ],
        [
          "DWORD",
          "dwOptions"
        ]
      ],
      "call": "std"
    },
    "DeleteUrlCacheContainerW": {
      "args": [
        [
          "LPCWSTR",
          "Name"
        ],
        [
          "DWORD",
          "dwOptions"
        ]
      ],
      "call": "std"
    },
    "DeleteUrlCacheEntry": {
      "args": [
        [
          "LPCSTR",
          "lpszUrlName"
        ]
      ],
      "call": "std"
    },
    "DeleteUrlCacheEntryA": {
      "args": [
        [
          "LPCSTR",
          "lpszUrlName"
        ]
      ],
      "call": "std"
    },
    "DeleteUrlCacheEntryW": {
      "args": [
        [
          "LPCWSTR",
          "lpszUrlName"
        ]
      ],
      "call": "std"
    },
    "DeleteUrlCacheGroup": {
      "args": [
        [
          "GROUPID",
          "GroupId"
        ],
        [
          "DWORD",
          "dwFlags"
        ],
        [
          "LPVOID",
          "lpReserved"
        ]
      ],
      "call": "std"
    },
    "DeleteWpadCacheForNetworks": {
      "args": [
        [
          "__in",
          "WPAD_CACHE_DELETE"
        ]
      ],
      "call": "std"
    },
    "DetectAutoProxyUrl": {
      "args": [
        [
          "LPSTR",
          "lpszAutoProxyUrl"
        ],
        [
          "DWORD",
          "dwAutoProxyUrlLength"
        ],
        [
          "DWORD",
          "dwDetectFlags"
        ]
      ],
      "call": "std"
    },
    "FindCloseUrlCache": {
      "args": [
        [
          "HANDLE",
          "hEnumHandle"
        ]
      ],
      "call": "std"
    },
    "FindFirstUrlCacheContainerA": {
      "args": [
        [
          "LPDWORD",
          "pdwModified"
        ],
        [
          "LPINTERNET_CACHE_CONTAINER_INFOA",
          "lpContainerInfo"
        ],
        [
          "LPDWORD",
          "lpcbContainerInfo"
        ],
        [
          "DWORD",
          "dwOptions"
        ]
      ],
      "call": "std"
    },
    "FindFirstUrlCacheContainerW": {
      "args": [
        [
          "LPDWORD",
          "pdwModified"
        ],
        [
          "LPINTERNET_CACHE_CONTAINER_INFOW",
          "lpContainerInfo"
        ],
        [
          "LPDWORD",
          "lpcbContainerInfo"
        ],
        [
          "DWORD",
          "dwOptions"
        ]
      ],
      "call": "std"
    },
    "FindFirstUrlCacheEntryA": {
      "args": [
        [
          "LPCSTR",
          "lpszUrlSearchPattern"
        ],
        [
          "LPINTERNET_CACHE_ENTRY_INFOA",
          "lpFirstCacheEntryInfo"
        ],
        [
          "LPDWORD",
          "lpcbCacheEntryInfo"
        ]
      ],
      "call": "std"
    },
    "FindFirstUrlCacheEntryExA": {
      "args": [
        [
          "LPCSTR",
          "lpszUrlSearchPattern"
        ],
        [
          "DWORD",
          "dwFlags"
        ],
        [
          "DWORD",
          "dwFilter"
        ],
        [
          "GROUPID",
          "GroupId"
        ],
        [
          "LPINTERNET_CACHE_ENTRY_INFOA",
          "lpFirstCacheEntryInfo"
        ],
        [
          "LPDWORD",
          "lpcbEntryInfo"
        ],
        [
          "LPVOID",
          "lpGroupAttributes"
        ],
        [
          "LPDWORD",
          "lpcbGroupAttributes"
        ],
        [
          "LPVOID",
          "lpReserved"
        ]
      ],
      "call": "std"
    },
    "FindFirstUrlCacheEntryExW": {
      "args": [
        [
          "LPCWSTR",
          "lpszUrlSearchPattern"
        ],
        [
          "DWORD",
          "dwFlags"
        ],
        [
          "DWORD",
          "dwFilter"
        ],
        [
          "GROUPID",
          "GroupId"
        ],
        [
          "LPINTERNET_CACHE_ENTRY_INFOW",
          "lpFirstCacheEntryInfo"
        ],
        [
          "LPDWORD",
          "lpcbEntryInfo"
        ],
        [
          "LPVOID",
          "lpGroupAttributes"
        ],
        [
          "LPDWORD",
          "lpcbGroupAttributes"
        ],
        [
          "LPVOID",
          "lpReserved"
        ]
      ],
      "call": "std"
    },
    "FindFirstUrlCacheEntryW": {
      "args": [
        [
          "LPCWSTR",
          "lpszUrlSearchPattern"
        ],
        [
          "LPINTERNET_CACHE_ENTRY_INFOW",
          "lpFirstCacheEntryInfo"
        ],
        [
          "LPDWORD",
          "lpcbCacheEntryInfo"
        ]
      ],
      "call": "std"
    },
    "FindNextUrlCacheContainerA": {
      "args": [
        [
          "HANDLE",
          "hEnumHandle"
        ],
        [
          "LPINTERNET_CACHE_CONTAINER_INFOA",
          "lpContainerInfo"
        ],
        [
          "LPDWORD",
          "lpcbContainerInfo"
        ]
      ],
      "call": "std"
    },
    "FindNextUrlCacheContainerW": {
      "args": [
        [
          "HANDLE",
          "hEnumHandle"
        ],
        [
          "LPINTERNET_CACHE_CONTAINER_INFOW",
          "lpContainerInfo"
        ],
        [
          "LPDWORD",
          "lpcbContainerInfo"
        ]
      ],
      "call": "std"
    },
    "FindNextUrlCacheEntryA": {
      "args": [
        [
          "HANDLE",
          "hEnumHandle"
        ],
        [
          "LPINTERNET_CACHE_ENTRY_INFOA",
          "lpNextCacheEntryInfo"
        ],
        [
          "LPDWORD",
          "lpcbCacheEntryInfo"
        ]
      ],
      "call": "std"
    },
    "FindNextUrlCacheEntryExA": {
      "args": [
        [
          "HANDLE",
          "hEnumHandle"
        ],
        [
          "LPINTERNET_CACHE_ENTRY_INFOA",
          "lpNextCacheEntryInfo"
        ],
        [
          "LPDWORD",
          "lpcbEntryInfo"
        ],
        [
          "LPVOID",
          "lpGroupAttributes"
        ],
        [
          "LPDWORD",
          "lpcbGroupAttributes"
        ],
        [
          "LPVOID",
          "lpReserved"
        ]
      ],
      "call": "std"
    },
    "FindNextUrlCacheEntryExW": {
      "args": [
        [
          "HANDLE",
          "hEnumHandle"
        ],
        [
          "LPINTERNET_CACHE_ENTRY_INFOW",
          "lpNextCacheEntryInfo"
        ],
        [
          "LPDWORD",
          "lpcbEntryInfo"
        ],
        [
          "LPVOID",
          "lpGroupAttributes"
        ],
        [
          "LPDWORD",
          "lpcbGroupAttributes"
        ],
        [
          "LPVOID",
          "lpReserved"
        ]
      ],
      "call": "std"
    },
    "FindNextUrlCacheEntryW": {
      "args": [
        [
          "HANDLE",
          "hEnumHandle"
        ],
        [
          "LPINTERNET_CACHE_ENTRY_INFOW",
          "lpNextCacheEntryInfo"
        ],
        [
          "LPDWORD",
          "lpcbCacheEntryInfo"
        ]
      ],
      "call": "std"
    },
    "FreeUrlCacheSpaceA": {
      "args": [
        [
          "LPCSTR",
          "lpszCachePath"
        ],
        [
          "DWORD",
          "dwSize"
        ],
        [
          "DWORD",
          "dwFilter"
        ]
      ],
      "call": "std"
    },
    "FreeUrlCacheSpaceW": {
      "args": [
        [
          "LPCWSTR",
          "lpszCachePath"
        ],
        [
          "DWORD",
          "dwSize"
        ],
        [
          "DWORD",
          "dwFilter"
        ]
      ],
      "call": "std"
    },
    "FtpCommandA": {
      "args": [
        [
          "HINTERNET",
          "hConnect"
        ],
        [
          "BOOL",
          "fExpectResponse"
        ],
        [
          "DWORD",
          "dwFlags"
        ],
        [
          "LPCSTR",
          "lpszCommand"
        ],
        [
          "DWORD_PTR",
          "dwContext"
        ],
        [
          "HINTERNET*",
          "phFtpCommand"
        ]
      ],
      "call": "std"
    },
    "FtpCommandW": {
      "args": [
        [
          "HINTERNET",
          "hConnect"
        ],
        [
          "BOOL",
          "fExpectResponse"
        ],
        [
          "DWORD",
          "dwFlags"
        ],
        [
          "LPCWSTR",
          "lpszCommand"
        ],
        [
          "DWORD_PTR",
          "dwContext"
        ],
        [
          "HINTERNET*",
          "phFtpCommand"
        ]
      ],
      "call": "std"
    },
    "FtpCreateDirectoryA": {
      "args": [
        [
          "HINTERNET",
          "hConnect"
        ],
        [
          "LPCSTR",
          "lpszDirectory"
        ]
      ],
      "call": "std"
    },
    "FtpCreateDirectoryW": {
      "args": [
        [
          "HINTERNET",
          "hConnect"
        ],
        [
          "LPCWSTR",
          "lpszDirectory"
        ]
      ],
      "call": "std"
    },
    "FtpDeleteFileA": {
      "args": [
        [
          "HINTERNET",
          "hConnect"
        ],
        [
          "LPCSTR",
          "lpszFileName"
        ]
      ],
      "call": "std"
    },
    "FtpDeleteFileW": {
      "args": [
        [
          "HINTERNET",
          "hConnect"
        ],
        [
          "LPCWSTR",
          "lpszFileName"
        ]
      ],
      "call": "std"
    },
    "FtpFindFirstFileA": {
      "args": [
        [
          "HINTERNET",
          "hConnect"
        ],
        [
          "LPCSTR",
          "lpszSearchFile"
        ],
        [
          "LPWIN32_FIND_DATAA",
          "lpFindFileData"
        ],
        [
          "DWORD",
          "dwFlags"
        ],
        [
          "DWORD_PTR",
          "dwContext"
        ]
      ],
      "call": "std"
    },
    "FtpFindFirstFileW": {
      "args": [
        [
          "HINTERNET",
          "hConnect"
        ],
        [
          "LPCWSTR",
          "lpszSearchFile"
        ],
        [
          "LPWIN32_FIND_DATAW",
          "lpFindFileData"
        ],
        [
          "DWORD",
          "dwFlags"
        ],
        [
          "DWORD_PTR",
          "dwContext"
        ]
      ],
      "call": "std"
    },
    "FtpGetCurrentDirectoryA": {
      "args": [
        [
          "HINTERNET",
          "hConnect"
        ],
        [
          "LPSTR",
          "lpszCurrentDirectory"
        ],
        [
          "LPDWORD",
          "lpdwCurrentDirectory"
        ]
      ],
      "call": "std"
    },
    "FtpGetCurrentDirectoryW": {
      "args": [
        [
          "HINTERNET",
          "hConnect"
        ],
        [
          "LPWSTR",
          "lpszCurrentDirectory"
        ],
        [
          "LPDWORD",
          "lpdwCurrentDirectory"
        ]
      ],
      "call": "std"
    },
    "FtpGetFileA": {
      "args": [
        [
          "HINTERNET",
          "hConnect"
        ],
        [
          "LPCSTR",
          "lpszRemoteFile"
        ],
        [
          "LPCSTR",
          "lpszNewFile"
        ],
        [
          "BOOL",
          "fFailIfExists"
        ],
        [
          "DWORD",
          "dwFlagsAndAttributes"
        ],
        [
          "DWORD",
          "dwFlags"
        ],
        [
          "DWORD_PTR",
          "dwContext"
        ]
      ],
      "call": "std"
    },
    "FtpGetFileEx": {
      "args": [
        [
          "HINTERNET",
          "hFtpSession"
        ],
        [
          "LPCSTR",
          "lpszRemoteFile"
        ],
        [
          "LPCWSTR",
          "lpszNewFile"
        ],
        [
          "BOOL",
          "fFailIfExists"
        ],
        [
          "DWORD",
          "dwFlagsAndAttributes"
        ],
        [
          "DWORD",
          "dwFlags"
        ],
        [
          "DWORD_PTR",
          "dwContext"
        ]
      ],
      "call": "std"
    },
    "FtpGetFileSize": {
      "args": [
        [
          "HINTERNET",
          "hFile"
        ],
        [
          "LPDWORD",
          "lpdwFileSizeHigh"
        ]
      ],
      "call": "std"
    },
    "FtpGetFileW": {
      "args": [
        [
          "HINTERNET",
          "hConnect"
        ],
        [
          "LPCWSTR",
          "lpszRemoteFile"
        ],
        [
          "LPCWSTR",
          "lpszNewFile"
        ],
        [
          "BOOL",
          "fFailIfExists"
        ],
        [
          "DWORD",
          "dwFlagsAndAttributes"
        ],
        [
          "DWORD",
          "dwFlags"
        ],
        [
          "DWORD_PTR",
          "dwContext"
        ]
      ],
      "call": "std"
    },
    "FtpOpenFileA": {
      "args": [
        [
          "HINTERNET",
          "hConnect"
        ],
        [
          "LPCSTR",
          "lpszFileName"
        ],
        [
          "DWORD",
          "dwAccess"
        ],
        [
          "DWORD",
          "dwFlags"
        ],
        [
          "DWORD_PTR",
          "dwContext"
        ]
      ],
      "call": "std"
    },
    "FtpOpenFileW": {
      "args": [
        [
          "HINTERNET",
          "hConnect"
        ],
        [
          "LPCWSTR",
          "lpszFileName"
        ],
        [
          "DWORD",
          "dwAccess"
        ],
        [
          "DWORD",
          "dwFlags"
        ],
        [
          "DWORD_PTR",
          "dwContext"
        ]
      ],
      "call": "std"
    },
    "FtpPutFileA": {
      "args": [
        [
          "HINTERNET",
          "hConnect"
        ],
        [
          "LPCSTR",
          "lpszLocalFile"
        ],
        [
          "LPCSTR",
          "lpszNewRemoteFile"
        ],
        [
          "DWORD",
          "dwFlags"
        ],
        [
          "DWORD_PTR",
          "dwContext"
        ]
      ],
      "call": "std"
    },
    "FtpPutFileEx": {
      "args": [
        [
          "HINTERNET",
          "hFtpSession"
        ],
        [
          "LPCWSTR",
          "lpszLocalFile"
        ],
        [
          "LPCSTR",
          "lpszNewRemoteFile"
        ],
        [
          "DWORD",
          "dwFlags"
        ],
        [
          "DWORD_PTR",
          "dwContext"
        ]
      ],
      "call": "std"
    },
    "FtpPutFileW": {
      "args": [
        [
          "HINTERNET",
          "hConnect"
        ],
        [
          "LPCWSTR",
          "lpszLocalFile"
        ],
        [
          "LPCWSTR",
          "lpszNewRemoteFile"
        ],
        [
          "DWORD",
          "dwFlags"
        ],
        [
          "DWORD_PTR",
          "dwContext"
        ]
      ],
      "call": "std"
    },
    "FtpRemoveDirectoryA": {
      "args": [
        [
          "HINTERNET",
          "hConnect"
        ],
        [
          "LPCSTR",
          "lpszDirectory"
        ]
      ],
      "call": "std"
    },
    "FtpRemoveDirectoryW": {
      "args": [
        [
          "HINTERNET",
          "hConnect"
        ],
        [
          "LPCWSTR",
          "lpszDirectory"
        ]
      ],
      "call": "std"
    },
    "FtpRenameFileA": {
      "args": [
        [
          "HINTERNET",
          "hConnect"
        ],
        [
          "LPCSTR",
          "lpszExisting"
        ],
        [
          "LPCSTR",
          "lpszNew"
        ]
      ],
      "call": "std"
    },
    "FtpRenameFileW": {
      "args": [
        [
          "HINTERNET",
          "hConnect"
        ],
        [
          "LPCWSTR",
          "lpszExisting"
        ],
        [
          "LPCWSTR",
          "lpszNew"
        ]
      ],
      "call": "std"
    },
    "FtpSetCurrentDirectoryA": {
      "args": [
        [
          "HINTERNET",
          "hConnect"
        ],
        [
          "LPCSTR",
          "lpszDirectory"
        ]
      ],
      "call": "std"
    },
    "FtpSetCurrentDirectoryW": {
      "args": [
        [
          "HINTERNET",
          "hConnect"
        ],
        [
          "LPCWSTR",
          "lpszDirectory"
        ]
      ],
      "call": "std"
    },
    "GetUrlCacheConfigInfoA": {
      "args": [
        [
          "LPINTERNET_CACHE_CONFIG_INFOA",
          "lpCacheConfigInfo"
        ],
        [
          "LPDWORD",
          "lpcbCacheConfigInfo"
        ],
        [
          "DWORD",
          "dwFieldControl"
        ]
      ],
      "call": "std"
    },
    "GetUrlCacheConfigInfoW": {
      "args": [
        [
          "LPINTERNET_CACHE_CONFIG_INFOW",
          "lpCacheConfigInfo"
        ],
        [
          "LPDWORD",
          "lpcbCacheConfigInfo"
        ],
        [
          "DWORD",
          "dwFieldControl"
        ]
      ],
      "call": "std"
    },
    "GetUrlCacheEntryInfoExA": {
      "args": [
        [
          "LPCSTR",
          "lpszUrl"
        ],
        [
          "LPINTERNET_CACHE_ENTRY_INFOA",
          "lpCacheEntryInfo"
        ],
        [
          "LPDWORD",
          "lpcbCacheEntryInfo"
        ],
        [
          "LPSTR",
          "lpszRedirectUrl"
        ],
        [
          "LPDWORD",
          "lpcbRedirectUrl"
        ],
        [
          "LPVOID",
          "lpReserved"
        ],
        [
          "DWORD",
          "dwFlags"
        ]
      ],
      "call": "std"
    },
    "GetUrlCacheEntryInfoExW": {
      "args": [
        [
          "LPCWSTR",
          "lpszUrl"
        ],
        [
          "LPINTERNET_CACHE_ENTRY_INFOW",
          "lpCacheEntryInfo"
        ],
        [
          "LPDWORD",
          "lpcbCacheEntryInfo"
        ],
        [
          "LPWSTR",
          "lpszRedirectUrl"
        ],
        [
          "LPDWORD",
          "lpcbRedirectUrl"
        ],
        [
          "LPVOID",
          "lpReserved"
        ],
        [
          "DWORD",
          "dwFlags"
        ]
      ],
      "call": "std"
    },
    "GopherCreateLocatorA": {
      "args": [
        [
          "LPCSTR",
          "lpszHost"
        ],
        [
          "INTERNET_PORT",
          "nServerPort"
        ],
        [
          "LPCSTR",
          "lpszDisplayString"
        ],
        [
          "LPCSTR",
          "lpszSelectorString"
        ],
        [
          "DWORD",
          "dwGopherType"
        ],
        [
          "LPSTR",
          "lpszLocator"
        ],
        [
          "LPDWORD",
          "lpdwBufferLength"
        ]
      ],
      "call": "std"
    },
    "GopherCreateLocatorW": {
      "args": [
        [
          "LPCWSTR",
          "lpszHost"
        ],
        [
          "INTERNET_PORT",
          "nServerPort"
        ],
        [
          "LPCWSTR",
          "lpszDisplayString"
        ],
        [
          "LPCWSTR",
          "lpszSelectorString"
        ],
        [
          "DWORD",
          "dwGopherType"
        ],
        [
          "LPWSTR",
          "lpszLocator"
        ],
        [
          "LPDWORD",
          "lpdwBufferLength"
        ]
      ],
      "call": "std"
    },
    "GopherFindFirstFileA": {
      "args": [
        [
          "HINTERNET",
          "hConnect"
        ],
        [
          "LPCSTR",
          "lpszLocator"
        ],
        [
          "LPCSTR",
          "lpszSearchString"
        ],
        [
          "LPGOPHER_FIND_DATAA",
          "lpFindData"
        ],
        [
          "DWORD",
          "dwFlags"
        ],
        [
          "DWORD_PTR",
          "dwContext"
        ]
      ],
      "call": "std"
    },
    "GopherFindFirstFileW": {
      "args": [
        [
          "HINTERNET",
          "hConnect"
        ],
        [
          "LPCWSTR",
          "lpszLocator"
        ],
        [
          "LPCWSTR",
          "lpszSearchString"
        ],
        [
          "LPGOPHER_FIND_DATAW",
          "lpFindData"
        ],
        [
          "DWORD",
          "dwFlags"
        ],
        [
          "DWORD_PTR",
          "dwContext"
        ]
      ],
      "call": "std"
    },
    "GopherGetAttributeA": {
      "args": [
        [
          "HINTERNET",
          "hConnect"
        ],
        [
          "LPCSTR",
          "lpszLocator"
        ],
        [
          "LPCSTR",
          "lpszAttributeName"
        ],
        [
          "LPBYTE",
          "lpBuffer"
        ],
        [
          "DWORD",
          "dwBufferLength"
        ],
        [
          "LPDWORD",
          "lpdwCharactersReturned"
        ],
        [
          "GOPHER_ATTRIBUTE_ENUMERATOR",
          "lpfnEnumerator"
        ],
        [
          "DWORD_PTR",
          "dwContext"
        ]
      ],
      "call": "std"
    },
    "GopherGetAttributeW": {
      "args": [
        [
          "HINTERNET",
          "hConnect"
        ],
        [
          "LPCWSTR",
          "lpszLocator"
        ],
        [
          "LPCWSTR",
          "lpszAttributeName"
        ],
        [
          "LPBYTE",
          "lpBuffer"
        ],
        [
          "DWORD",
          "dwBufferLength"
        ],
        [
          "LPDWORD",
          "lpdwCharactersReturned"
        ],
        [
          "GOPHER_ATTRIBUTE_ENUMERATOR",
          "lpfnEnumerator"
        ],
        [
          "DWORD_PTR",
          "dwContext"
        ]
      ],
      "call": "std"
    },
    "GopherGetLocatorTypeA": {
      "args": [
        [
          "LPCSTR",
          "lpszLocator"
        ],
        [
          "LPDWORD",
          "lpdwGopherType"
        ]
      ],
      "call": "std"
    },
    "GopherGetLocatorTypeW": {
      "args": [
        [
          "LPCWSTR",
          "lpszLocator"
        ],
        [
          "LPDWORD",
          "lpdwGopherType"
        ]
      ],
      "call": "std"
    },
    "GopherOpenFileA": {
      "args": [
        [
          "HINTERNET",
          "hConnect"
        ],
        [
          "LPCSTR",
          "lpszLocator"
        ],
        [
          "LPCSTR",
          "lpszView"
        ],
        [
          "DWORD",
          "dwFlags"
        ],
        [
          "DWORD_PTR",
          "dwContext"
        ]
      ],
      "call": "std"
    },
    "GopherOpenFileW": {
      "args": [
        [
          "HINTERNET",
          "hConnect"
        ],
        [
          "LPCWSTR",
          "lpszLocator"
        ],
        [
          "LPCWSTR",
          "lpszView"
        ],
        [
          "DWORD",
          "dwFlags"
        ],
        [
          "DWORD_PTR",
          "dwContext"
        ]
      ],
      "call": "std"
    },
    "HttpAddRequestHeadersA": {
      "args": [
        [
          "HINTERNET",
          "hRequest"
        ],
        [
          "LPCSTR",
          "lpszHeaders"
        ],
        [
          "DWORD",
          "dwHeadersLength"
        ],
        [
          "DWORD",
          "dwModifiers"
        ]
      ],
      "call": "std"
    },
    "HttpAddRequestHeadersW": {
      "args": [
        [
          "HINTERNET",
          "hRequest"
        ],
        [
          "LPCWSTR",
          "lpszHeaders"
        ],
        [
          "DWORD",
          "dwHeadersLength"
        ],
        [
          "DWORD",
          "dwModifiers"
        ]
      ],
      "call": "std"
    },
    "HttpEndRequestA": {
      "args": [
        [
          "HINTERNET",
          "hRequest"
        ],
        [
          "LPINTERNET_BUFFERSA",
          "lpBuffersOut"
        ],
        [
          "DWORD",
          "dwFlags"
        ],
        [
          "DWORD_PTR",
          "dwContext"
        ]
      ],
      "call": "std"
    },
    "HttpEndRequestW": {
      "args": [
        [
          "HINTERNET",
          "hRequest"
        ],
        [
          "LPINTERNET_BUFFERSW",
          "lpBuffersOut"
        ],
        [
          "DWORD",
          "dwFlags"
        ],
        [
          "DWORD_PTR",
          "dwContext"
        ]
      ],
      "call": "std"
    },
    "HttpOpenRequestA": {
      "args": [
        [
          "HINTERNET",
          "hConnect"
        ],
        [
          "LPCSTR",
          "lpszVerb"
        ],
        [
          "LPCSTR",
          "lpszObjectName"
        ],
        [
          "LPCSTR",
          "lpszVersion"
        ],
        [
          "LPCSTR",
          "lpszReferrer"
        ],
        [
          "FAR*",
          "lplpszAcceptTypes"
        ],
        [
          "DWORD",
          "dwFlags"
        ],
        [
          "DWORD_PTR",
          "dwContext"
        ]
      ],
      "call": "std"
    },
    "HttpOpenRequestW": {
      "args": [
        [
          "HINTERNET",
          "hConnect"
        ],
        [
          "LPCWSTR",
          "lpszVerb"
        ],
        [
          "LPCWSTR",
          "lpszObjectName"
        ],
        [
          "LPCWSTR",
          "lpszVersion"
        ],
        [
          "LPCWSTR",
          "lpszReferrer"
        ],
        [
          "FAR*",
          "lplpszAcceptTypes"
        ],
        [
          "DWORD",
          "dwFlags"
        ],
        [
          "DWORD_PTR",
          "dwContext"
        ]
      ],
      "call": "std"
    },
    "HttpQueryInfoA": {
      "args": [
        [
          "HINTERNET",
          "hRequest"
        ],
        [
          "DWORD",
          "dwInfoLevel"
        ],
        [
          "LPVOID",
          "lpBuffer"
        ],
        [
          "LPDWORD",
          "lpdwBufferLength"
        ],
        [
          "LPDWORD",
          "lpdwIndex"
        ]
      ],
      "call": "std"
    },
    "HttpQueryInfoW": {
      "args": [
        [
          "HINTERNET",
          "hRequest"
        ],
        [
          "DWORD",
          "dwInfoLevel"
        ],
        [
          "LPVOID",
          "lpBuffer"
        ],
        [
          "LPDWORD",
          "lpdwBufferLength"
        ],
        [
          "LPDWORD",
          "lpdwIndex"
        ]
      ],
      "call": "std"
    },
    "HttpSendRequestA": {
      "args": [
        [
          "HINTERNET",
          "hRequest"
        ],
        [
          "LPCSTR",
          "lpszHeaders"
        ],
        [
          "DWORD",
          "dwHeadersLength"
        ],
        [
          "LPVOID",
          "lpOptional"
        ],
        [
          "DWORD",
          "dwOptionalLength"
        ]
      ],
      "call": "std"
    },
    "HttpSendRequestExA": {
      "args": [
        [
          "HINTERNET",
          "hRequest"
        ],
        [
          "LPINTERNET_BUFFERSA",
          "lpBuffersIn"
        ],
        [
          "LPINTERNET_BUFFERSA",
          "lpBuffersOut"
        ],
        [
          "DWORD",
          "dwFlags"
        ],
        [
          "DWORD_PTR",
          "dwContext"
        ]
      ],
      "call": "std"
    },
    "HttpSendRequestExW": {
      "args": [
        [
          "HINTERNET",
          "hRequest"
        ],
        [
          "LPINTERNET_BUFFERSW",
          "lpBuffersIn"
        ],
        [
          "LPINTERNET_BUFFERSW",
          "lpBuffersOut"
        ],
        [
          "DWORD",
          "dwFlags"
        ],
        [
          "DWORD_PTR",
          "dwContext"
        ]
      ],
      "call": "std"
    },
    "HttpSendRequestW": {
      "args": [
        [
          "HINTERNET",
          "hRequest"
        ],
        [
          "LPCWSTR",
          "lpszHeaders"
        ],
        [
          "DWORD",
          "dwHeadersLength"
        ],
        [
          "LPVOID",
          "lpOptional"
        ],
        [
          "DWORD",
          "dwOptionalLength"
        ]
      ],
      "call": "std"
    },
    "InternetAlgIdToStringA": {
      "args": [
        [
          "ALG_ID",
          "ai"
        ],
        [
          "LPSTR",
          "lpstr"
        ],
        [
          "LPDWORD",
          "lpdwBufferLength"
        ],
        [
          "DWORD",
          "dwReserved"
        ]
      ],
      "call": "std"
    },
    "InternetAlgIdToStringW": {
      "args": [
        [
          "ALG_ID",
          "ai"
        ],
        [
          "LPWSTR",
          "lpstr"
        ],
        [
          "LPDWORD",
          "lpdwBufferLength"
        ],
        [
          "DWORD",
          "dwReserved"
        ]
      ],
      "call": "std"
    },
    "InternetAttemptConnect": {
      "args": [
        [
          "DWORD",
          "dwReserved"
        ]
      ],
      "call": "std"
    },
    "InternetAutodial": {
      "args": [
        [
          "DWORD",
          "dwFlags"
        ],
        [
          "HWND",
          "hwndParent"
        ]
      ],
      "call": "std"
    },
    "InternetAutodialHangup": {
      "args": [
        [
          "DWORD",
          "dwReserved"
        ]
      ],
      "call": "std"
    },
    "InternetCanonicalizeUrlA": {
      "args": [
        [
          "LPCSTR",
          "lpszUrl"
        ],
        [
          "LPSTR",
          "lpszBuffer"
        ],
        [
          "LPDWORD",
          "lpdwBufferLength"
        ],
        [
          "DWORD",
          "dwFlags"
        ]
      ],
      "call": "std"
    },
    "InternetCanonicalizeUrlW": {
      "args": [
        [
          "LPCWSTR",
          "lpszUrl"
        ],
        [
          "LPWSTR",
          "lpszBuffer"
        ],
        [
          "LPDWORD",
          "lpdwBufferLength"
        ],
        [
          "DWORD",
          "dwFlags"
        ]
      ],
      "call": "std"
    },
    "InternetCheckConnectionA": {
      "args": [
        [
          "LPCSTR",
          "lpszUrl"
        ],
        [
          "DWORD",
          "dwFlags"
        ],
        [
          "DWORD",
          "dwReserved"
        ]
      ],
      "call": "std"
    },
    "InternetCheckConnectionW": {
      "args": [
        [
          "LPCWSTR",
          "lpszUrl"
        ],
        [
          "DWORD",
          "dwFlags"
        ],
        [
          "DWORD",
          "dwReserved"
        ]
      ],
      "call": "std"
    },
    "InternetClearAllPerSiteCookieDecisions": {
      "args": [],
      "call": "std"
    },
    "InternetCloseHandle": {
      "args": [
        [
          "HINTERNET",
          "hInternet"
        ]
      ],
      "call": "std"
    },
    "InternetCombineUrlA": {
      "args": [
        [
          "LPCSTR",
          "lpszBaseUrl"
        ],
        [
          "LPCSTR",
          "lpszRelativeUrl"
        ],
        [
          "LPSTR",
          "lpszBuffer"
        ],
        [
          "LPDWORD",
          "lpdwBufferLength"
        ],
        [
          "DWORD",
          "dwFlags"
        ]
      ],
      "call": "std"
    },
    "InternetCombineUrlW": {
      "args": [
        [
          "LPCWSTR",
          "lpszBaseUrl"
        ],
        [
          "LPCWSTR",
          "lpszRelativeUrl"
        ],
        [
          "LPWSTR",
          "lpszBuffer"
        ],
        [
          "LPDWORD",
          "lpdwBufferLength"
        ],
        [
          "DWORD",
          "dwFlags"
        ]
      ],
      "call": "std"
    },
    "InternetConfirmZoneCrossing": {
      "args": [
        [
          "HWND",
          "hWnd"
        ],
        [
          "LPSTR",
          "szUrlPrev"
        ],
        [
          "LPSTR",
          "szUrlNew"
        ],
        [
          "BOOL",
          "bPost"
        ]
      ],
      "call": "std"
    },
    "InternetConfirmZoneCrossingA": {
      "args": [
        [
          "HWND",
          "hWnd"
        ],
        [
          "LPSTR",
          "szUrlPrev"
        ],
        [
          "LPSTR",
          "szUrlNew"
        ],
        [
          "BOOL",
          "bPost"
        ]
      ],
      "call": "std"
    },
    "InternetConfirmZoneCrossingW": {
      "args": [
        [
          "HWND",
          "hWnd"
        ],
        [
          "LPWSTR",
          "szUrlPrev"
        ],
        [
          "LPWSTR",
          "szUrlNew"
        ],
        [
          "BOOL",
          "bPost"
        ]
      ],
      "call": "std"
    },
    "InternetConnectA": {
      "args": [
        [
          "HINTERNET",
          "hInternet"
        ],
        [
          "LPCSTR",
          "lpszServerName"
        ],
        [
          "INTERNET_PORT",
          "nServerPort"
        ],
        [
          "LPCSTR",
          "lpszUserName"
        ],
        [
          "LPCSTR",
          "lpszPassword"
        ],
        [
          "DWORD",
          "dwService"
        ],
        [
          "DWORD",
          "dwFlags"
        ],
        [
          "DWORD_PTR",
          "dwContext"
        ]
      ],
      "call": "std"
    },
    "InternetConnectW": {
      "args": [
        [
          "HINTERNET",
          "hInternet"
        ],
        [
          "LPCWSTR",
          "lpszServerName"
        ],
        [
          "INTERNET_PORT",
          "nServerPort"
        ],
        [
          "LPCWSTR",
          "lpszUserName"
        ],
        [
          "LPCWSTR",
          "lpszPassword"
        ],
        [
          "DWORD",
          "dwService"
        ],
        [
          "DWORD",
          "dwFlags"
        ],
        [
          "DWORD_PTR",
          "dwContext"
        ]
      ],
      "call": "std"
    },
    "InternetCrackUrlA": {
      "args": [
        [
          "LPCSTR",
          "lpszUrl"
        ],
        [
          "DWORD",
          "dwUrlLength"
        ],
        [
          "DWORD",
          "dwFlags"
        ],
        [
          "LPURL_COMPONENTSA",
          "lpUrlComponents"
        ]
      ],
      "call": "std"
    },
    "InternetCrackUrlW": {
      "args": [
        [
          "LPCWSTR",
          "lpszUrl"
        ],
        [
          "DWORD",
          "dwUrlLength"
        ],
        [
          "DWORD",
          "dwFlags"
        ],
        [
          "LPURL_COMPONENTSW",
          "lpUrlComponents"
        ]
      ],
      "call": "std"
    },
    "InternetCreateUrlA": {
      "args": [
        [
          "LPURL_COMPONENTSA",
          "lpUrlComponents"
        ],
        [
          "DWORD",
          "dwFlags"
        ],
        [
          "LPSTR",
          "lpszUrl"
        ],
        [
          "LPDWORD",
          "lpdwUrlLength"
        ]
      ],
      "call": "std"
    },
    "InternetCreateUrlW": {
      "args": [
        [
          "LPURL_COMPONENTSW",
          "lpUrlComponents"
        ],
        [
          "DWORD",
          "dwFlags"
        ],
        [
          "LPWSTR",
          "lpszUrl"
        ],
        [
          "LPDWORD",
          "lpdwUrlLength"
        ]
      ],
      "call": "std"
    },
    "InternetDial": {
      "args": [
        [
          "HWND",
          "hwndParent"
        ],
        [
          "LPSTR",
          "lpszConnectoid"
        ],
        [
          "DWORD",
          "dwFlags"
        ],
        [
          "LPDWORD",
          "lpdwConnection"
        ],
        [
          "DWORD",
          "dwReserved"
        ]
      ],
      "call": "std"
    },
    "InternetDialA": {
      "args": [
        [
          "HWND",
          "hwndParent"
        ],
        [
          "LPSTR",
          "lpszConnectoid"
        ],
        [
          "DWORD",
          "dwFlags"
        ],
        [
          "DWORD_PTR*",
          "lpdwConnection"
        ],
        [
          "DWORD",
          "dwReserved"
        ]
      ],
      "call": "std"
    },
    "InternetDialW": {
      "args": [
        [
          "HWND",
          "hwndParent"
        ],
        [
          "LPWSTR",
          "lpszConnectoid"
        ],
        [
          "DWORD",
          "dwFlags"
        ],
        [
          "DWORD_PTR*",
          "lpdwConnection"
        ],
        [
          "DWORD",
          "dwReserved"
        ]
      ],
      "call": "std"
    },
    "InternetEnumPerSiteCookieDecisionA": {
      "args": [
        [
          "LPSTR",
          "pszSiteName"
        ],
        [
          "long*",
          "pcSiteNameSize"
        ],
        [
          "long*",
          "pdwDecision"
        ],
        [
          "long",
          "dwIndex"
        ]
      ],
      "call": "std"
    },
    "InternetEnumPerSiteCookieDecisionW": {
      "args": [
        [
          "LPWSTR",
          "pszSiteName"
        ],
        [
          "long*",
          "pcSiteNameSize"
        ],
        [
          "long*",
          "pdwDecision"
        ],
        [
          "long",
          "dwIndex"
        ]
      ],
      "call": "std"
    },
    "InternetErrorDlg": {
      "args": [
        [
          "HWND",
          "hWnd"
        ],
        [
          "HINTERNET",
          "hRequest"
        ],
        [
          "DWORD",
          "dwError"
        ],
        [
          "DWORD",
          "dwFlags"
        ],
        [
          "LPVOID*",
          "lppvData"
        ]
      ],
      "call": "std"
    },
    "InternetFindNextFileA": {
      "args": [
        [
          "HINTERNET",
          "hFind"
        ],
        [
          "LPVOID",
          "lpvFindData"
        ]
      ],
      "call": "std"
    },
    "InternetFindNextFileW": {
      "args": [
        [
          "HINTERNET",
          "hFind"
        ],
        [
          "LPVOID",
          "lpvFindData"
        ]
      ],
      "call": "std"
    },
    "InternetFortezzaCommand": {
      "args": [
        [
          "DWORD",
          "dwCommand"
        ],
        [
          "HWND",
          "hwnd"
        ],
        [
          "DWORD_PTR",
          "dwReserved"
        ]
      ],
      "call": "std"
    },
    "InternetGetCertByURL": {
      "args": [
        [
          "LPSTR",
          "lpszURL"
        ],
        [
          "LPSTR",
          "lpszCertText"
        ],
        [
          "DWORD",
          "dwcbCertText\n//"
        ]
      ],
      "call": "std"
    },
    "InternetGetConnectedState": {
      "args": [
        [
          "LPDWORD",
          "lpdwFlags"
        ],
        [
          "DWORD",
          "dwReserved"
        ]
      ],
      "call": "std"
    },
    "InternetGetConnectedStateEx": {
      "args": [
        [
          "LPDWORD",
          "lpdwFlags"
        ],
        [
          "LPSTR",
          "lpszConnectionName"
        ],
        [
          "DWORD",
          "dwNameLen"
        ],
        [
          "DWORD",
          "dwReserved"
        ]
      ],
      "call": "std"
    },
    "InternetGetConnectedStateExA": {
      "args": [
        [
          "LPDWORD",
          "lpdwFlags"
        ],
        [
          "LPSTR",
          "lpszConnectionName"
        ],
        [
          "DWORD",
          "dwBufLen"
        ],
        [
          "DWORD",
          "dwReserved"
        ]
      ],
      "call": "std"
    },
    "InternetGetConnectedStateExW": {
      "args": [
        [
          "LPDWORD",
          "lpdwFlags"
        ],
        [
          "LPWSTR",
          "lpszConnectionName"
        ],
        [
          "DWORD",
          "dwBufLen"
        ],
        [
          "DWORD",
          "dwReserved"
        ]
      ],
      "call": "std"
    },
    "InternetGetCookieA": {
      "args": [
        [
          "LPCSTR",
          "lpszUrl"
        ],
        [
          "LPCSTR",
          "lpszCookieName"
        ],
        [
          "LPSTR",
          "lpszCookieData"
        ],
        [
          "LPDWORD",
          "lpdwSize"
        ]
      ],
      "call": "std"
    },
    "InternetGetCookieExA": {
      "args": [
        [
          "LPCSTR",
          "lpszUrl"
        ],
        [
          "LPCSTR",
          "lpszCookieName"
        ],
        [
          "LPSTR",
          "lpszCookieData"
        ],
        [
          "LPDWORD",
          "lpdwSize"
        ],
        [
          "DWORD",
          "dwFlags"
        ],
        [
          "LPVOID",
          "lpReserved"
        ]
      ],
      "call": "std"
    },
    "InternetGetCookieExW": {
      "args": [
        [
          "LPCWSTR",
          "lpszUrl"
        ],
        [
          "LPCWSTR",
          "lpszCookieName"
        ],
        [
          "LPWSTR",
          "lpszCookieData"
        ],
        [
          "LPDWORD",
          "lpdwSize"
        ],
        [
          "DWORD",
          "dwFlags"
        ],
        [
          "LPVOID",
          "lpReserved"
        ]
      ],
      "call": "std"
    },
    "InternetGetCookieW": {
      "args": [
        [
          "LPCWSTR",
          "lpszUrl"
        ],
        [
          "LPCWSTR",
          "lpszCookieName"
        ],
        [
          "LPWSTR",
          "lpszCookieData"
        ],
        [
          "LPDWORD",
          "lpdwSize"
        ]
      ],
      "call": "std"
    },
    "InternetGetLastResponseInfoA": {
      "args": [
        [
          "LPDWORD",
          "lpdwError"
        ],
        [
          "LPSTR",
          "lpszBuffer"
        ],
        [
          "LPDWORD",
          "lpdwBufferLength"
        ]
      ],
      "call": "std"
    },
    "InternetGetLastResponseInfoW": {
      "args": [
        [
          "LPDWORD",
          "lpdwError"
        ],
        [
          "LPWSTR",
          "lpszBuffer"
        ],
        [
          "LPDWORD",
          "lpdwBufferLength"
        ]
      ],
      "call": "std"
    },
    "InternetGetPerSiteCookieDecisionA": {
      "args": [
        [
          "LPCSTR",
          "pchHostName"
        ],
        [
          "long*",
          "pResult"
        ]
      ],
      "call": "std"
    },
    "InternetGetPerSiteCookieDecisionW": {
      "args": [
        [
          "LPCWSTR",
          "pchHostName"
        ],
        [
          "long*",
          "pResult"
        ]
      ],
      "call": "std"
    },
    "InternetGetSecurityInfoByURL": {
      "args": [
        [
          "LPSTR",
          "lpszURL"
        ],
        [
          "PCCERT_CHAIN_CONTEXT*",
          "ppCertChain"
        ],
        [
          "*",
          "pdwSecureFlags"
        ]
      ],
      "call": "std"
    },
    "InternetGetSecurityInfoByURLA": {
      "args": [
        [
          "LPSTR",
          "lpszURL"
        ],
        [
          "PCCERT_CHAIN_CONTEXT*",
          "ppCertChain"
        ],
        [
          "*",
          "pdwSecureFlags"
        ]
      ],
      "call": "std"
    },
    "InternetGetSecurityInfoByURLW": {
      "args": [
        [
          "LPCWSTR",
          "lpszURL"
        ],
        [
          "PCCERT_CHAIN_CONTEXT*",
          "ppCertChain"
        ],
        [
          "*",
          "pdwSecureFlags"
        ]
      ],
      "call": "std"
    },
    "InternetGoOnline": {
      "args": [
        [
          "LPSTR",
          "lpszURL"
        ],
        [
          "HWND",
          "hwndParent"
        ],
        [
          "DWORD",
          "dwFlags"
        ]
      ],
      "call": "std"
    },
    "InternetGoOnlineA": {
      "args": [
        [
          "LPCSTR",
          "lpszURL"
        ],
        [
          "HWND",
          "hwndParent"
        ],
        [
          "DWORD",
          "dwFlags"
        ]
      ],
      "call": "std"
    },
    "InternetGoOnlineW": {
      "args": [
        [
          "LPCWSTR",
          "lpszURL"
        ],
        [
          "HWND",
          "hwndParent"
        ],
        [
          "DWORD",
          "dwFlags"
        ]
      ],
      "call": "std"
    },
    "InternetHangUp": {
      "args": [
        [
          "DWORD_PTR",
          "dwConnection"
        ],
        [
          "DWORD",
          "dwReserved"
        ]
      ],
      "call": "std"
    },
    "InternetInitializeAutoProxyDll": {
      "args": [
        [
          "DWORD",
          "dwReserved"
        ]
      ],
      "call": "std"
    },
    "InternetLockRequestFile": {
      "args": [
        [
          "HINTERNET",
          "hInternet"
        ],
        [
          "HANDLE*",
          "lphLockRequestInfo"
        ]
      ],
      "call": "std"
    },
    "InternetOpenA": {
      "args": [
        [
          "LPCSTR",
          "lpszAgent"
        ],
        [
          "DWORD",
          "dwAccessType"
        ],
        [
          "LPCSTR",
          "lpszProxy"
        ],
        [
          "LPCSTR",
          "lpszProxyBypass"
        ],
        [
          "DWORD",
          "dwFlags"
        ]
      ],
      "call": "std"
    },
    "InternetOpenUrlA": {
      "args": [
        [
          "HINTERNET",
          "hInternet"
        ],
        [
          "LPCSTR",
          "lpszUrl"
        ],
        [
          "LPCSTR",
          "lpszHeaders"
        ],
        [
          "DWORD",
          "dwHeadersLength"
        ],
        [
          "DWORD",
          "dwFlags"
        ],
        [
          "DWORD_PTR",
          "dwContext"
        ]
      ],
      "call": "std"
    },
    "InternetOpenUrlW": {
      "args": [
        [
          "HINTERNET",
          "hInternet"
        ],
        [
          "LPCWSTR",
          "lpszUrl"
        ],
        [
          "LPCWSTR",
          "lpszHeaders"
        ],
        [
          "DWORD",
          "dwHeadersLength"
        ],
        [
          "DWORD",
          "dwFlags"
        ],
        [
          "DWORD_PTR",
          "dwContext"
        ]
      ],
      "call": "std"
    },
    "InternetOpenW": {
      "args": [
        [
          "LPCWSTR",
          "lpszAgent"
        ],
        [
          "DWORD",
          "dwAccessType"
        ],
        [
          "LPCWSTR",
          "lpszProxy"
        ],
        [
          "LPCWSTR",
          "lpszProxyBypass"
        ],
        [
          "DWORD",
          "dwFlags"
        ]
      ],
      "call": "std"
    },
    "InternetQueryDataAvailable": {
      "args": [
        [
          "HINTERNET",
          "hFile"
        ],
        [
          "__out_data_source",
          "lpdwNumberOfBytesAvailable"
        ],
        [
          "DWORD",
          "dwFlags"
        ],
        [
          "DWORD_PTR",
          "dwContext"
        ]
      ],
      "call": "std"
    },
    "InternetQueryFortezzaStatus": {
      "args": [
        [
          "DWORD*",
          "pdwStatus"
        ],
        [
          "DWORD_PTR",
          "dwReserved"
        ]
      ],
      "call": "std"
    },
    "InternetQueryOptionA": {
      "args": [
        [
          "HINTERNET",
          "hInternet"
        ],
        [
          "DWORD",
          "dwOption"
        ],
        [
          "LPVOID",
          "lpBuffer"
        ],
        [
          "LPDWORD",
          "lpdwBufferLength"
        ]
      ],
      "call": "std"
    },
    "InternetQueryOptionW": {
      "args": [
        [
          "HINTERNET",
          "hInternet"
        ],
        [
          "DWORD",
          "dwOption"
        ],
        [
          "LPVOID",
          "lpBuffer"
        ],
        [
          "LPDWORD",
          "lpdwBufferLength"
        ]
      ],
      "call": "std"
    },
    "InternetReadFile": {
      "args": [
        [
          "HINTERNET",
          "hFile"
        ],
        [
          "LPVOID",
          "lpBuffer"
        ],
        [
          "DWORD",
          "dwNumberOfBytesToRead"
        ],
        [
          "LPDWORD",
          "lpdwNumberOfBytesRead"
        ]
      ],
      "call": "std"
    },
    "InternetReadFileExA": {
      "args": [
        [
          "HINTERNET",
          "hFile"
        ],
        [
          "LPINTERNET_BUFFERSA",
          "lpBuffersOut"
        ],
        [
          "DWORD",
          "dwFlags"
        ],
        [
          "DWORD_PTR",
          "dwContext"
        ]
      ],
      "call": "std"
    },
    "InternetReadFileExW": {
      "args": [
        [
          "HINTERNET",
          "hFile"
        ],
        [
          "LPINTERNET_BUFFERSW",
          "lpBuffersOut"
        ],
        [
          "DWORD",
          "dwFlags"
        ],
        [
          "DWORD_PTR",
          "dwContext"
        ]
      ],
      "call": "std"
    },
    "InternetSecurityProtocolToStringA": {
      "args": [
        [
          "DWORD",
          "dwProtocol"
        ],
        [
          "LPSTR",
          "lpstr"
        ],
        [
          "LPDWORD",
          "lpdwBufferLength"
        ],
        [
          "DWORD",
          "dwReserved"
        ]
      ],
      "call": "std"
    },
    "InternetSecurityProtocolToStringW": {
      "args": [
        [
          "DWORD",
          "dwProtocol"
        ],
        [
          "LPWSTR",
          "lpstr"
        ],
        [
          "LPDWORD",
          "lpdwBufferLength"
        ],
        [
          "DWORD",
          "dwReserved"
        ]
      ],
      "call": "std"
    },
    "InternetSetCookieA": {
      "args": [
        [
          "LPCSTR",
          "lpszUrl"
        ],
        [
          "LPCSTR",
          "lpszCookieName"
        ],
        [
          "LPCSTR",
          "lpszCookieData"
        ]
      ],
      "call": "std"
    },
    "InternetSetCookieExA": {
      "args": [
        [
          "LPCSTR",
          "lpszUrl"
        ],
        [
          "LPCSTR",
          "lpszCookieName"
        ],
        [
          "LPCSTR",
          "lpszCookieData"
        ],
        [
          "DWORD",
          "dwFlags"
        ],
        [
          "DWORD_PTR",
          "dwReserved"
        ]
      ],
      "call": "std"
    },
    "InternetSetCookieExW": {
      "args": [
        [
          "LPCWSTR",
          "lpszUrl"
        ],
        [
          "LPCWSTR",
          "lpszCookieName"
        ],
        [
          "LPCWSTR",
          "lpszCookieData"
        ],
        [
          "DWORD",
          "dwFlags"
        ],
        [
          "DWORD_PTR",
          "dwReserved"
        ]
      ],
      "call": "std"
    },
    "InternetSetCookieW": {
      "args": [
        [
          "LPCWSTR",
          "lpszUrl"
        ],
        [
          "LPCWSTR",
          "lpszCookieName"
        ],
        [
          "LPCWSTR",
          "lpszCookieData"
        ]
      ],
      "call": "std"
    },
    "InternetSetDialState": {
      "args": [
        [
          "LPCSTR",
          "lpszConnectoid"
        ],
        [
          "DWORD",
          "dwState"
        ],
        [
          "DWORD",
          "dwReserved"
        ]
      ],
      "call": "std"
    },
    "InternetSetDialStateA": {
      "args": [
        [
          "LPCSTR",
          "lpszConnectoid"
        ],
        [
          "DWORD",
          "dwState"
        ],
        [
          "DWORD",
          "dwReserved"
        ]
      ],
      "call": "std"
    },
    "InternetSetDialStateW": {
      "args": [
        [
          "LPCWSTR",
          "lpszConnectoid"
        ],
        [
          "DWORD",
          "dwState"
        ],
        [
          "DWORD",
          "dwReserved"
        ]
      ],
      "call": "std"
    },
    "InternetSetFilePointer": {
      "args": [
        [
          "HINTERNET",
          "hFile"
        ],
        [
          "LONG",
          "lDistanceToMove"
        ],
        [
          "PLONG",
          "lpDistanceToMoveHigh"
        ],
        [
          "DWORD",
          "dwMoveMethod"
        ],
        [
          "DWORD_PTR",
          "dwContext"
        ]
      ],
      "call": "std"
    },
    "InternetSetOptionA": {
      "args": [
        [
          "HINTERNET",
          "hInternet"
        ],
        [
          "DWORD",
          "dwOption"
        ],
        [
          "LPVOID",
          "lpBuffer"
        ],
        [
          "DWORD",
          "dwBufferLength"
        ]
      ],
      "call": "std"
    },
    "InternetSetOptionExA": {
      "args": [
        [
          "HINTERNET",
          "hInternet"
        ],
        [
          "DWORD",
          "dwOption"
        ],
        [
          "LPVOID",
          "lpBuffer"
        ],
        [
          "DWORD",
          "dwBufferLength"
        ],
        [
          "DWORD",
          "dwFlags"
        ]
      ],
      "call": "std"
    },
    "InternetSetOptionExW": {
      "args": [
        [
          "HINTERNET",
          "hInternet"
        ],
        [
          "DWORD",
          "dwOption"
        ],
        [
          "LPVOID",
          "lpBuffer"
        ],
        [
          "DWORD",
          "dwBufferLength"
        ],
        [
          "DWORD",
          "dwFlags"
        ]
      ],
      "call": "std"
    },
    "InternetSetOptionW": {
      "args": [
        [
          "HINTERNET",
          "hInternet"
        ],
        [
          "DWORD",
          "dwOption"
        ],
        [
          "LPVOID",
          "lpBuffer"
        ],
        [
          "DWORD",
          "dwBufferLength"
        ]
      ],
      "call": "std"
    },
    "InternetSetPerSiteCookieDecisionA": {
      "args": [
        [
          "LPCSTR",
          "pchHostName"
        ],
        [
          "DWORD",
          "dwDecision"
        ]
      ],
      "call": "std"
    },
    "InternetSetPerSiteCookieDecisionW": {
      "args": [
        [
          "LPCWSTR",
          "pchHostName"
        ],
        [
          "DWORD",
          "dwDecision"
        ]
      ],
      "call": "std"
    },
    "InternetSetStatusCallback": {
      "args": [
        [
          "HINTERNET",
          "hInternet"
        ],
        [
          "INTERNET_STATUS_CALLBACK",
          "lpfnInternetCallback"
        ]
      ],
      "call": "std"
    },
    "InternetSetStatusCallbackA": {
      "args": [
        [
          "HINTERNET",
          "hInternet"
        ],
        [
          "INTERNET_STATUS_CALLBACK",
          "lpfnInternetCallback"
        ]
      ],
      "call": "std"
    },
    "InternetSetStatusCallbackW": {
      "args": [
        [
          "HINTERNET",
          "hInternet"
        ],
        [
          "INTERNET_STATUS_CALLBACK",
          "lpfnInternetCallback"
        ]
      ],
      "call": "std"
    },
    "InternetShowSecurityInfoByURL": {
      "args": [
        [
          "LPSTR",
          "lpszURL"
        ],
        [
          "HWND",
          "hwndParent"
        ]
      ],
      "call": "std"
    },
    "InternetShowSecurityInfoByURLA": {
      "args": [
        [
          "LPSTR",
          "lpszURL"
        ],
        [
          "HWND",
          "hwndParent"
        ]
      ],
      "call": "std"
    },
    "InternetShowSecurityInfoByURLW": {
      "args": [
        [
          "LPCWSTR",
          "lpszURL"
        ],
        [
          "HWND",
          "hwndParent"
        ]
      ],
      "call": "std"
    },
    "InternetTimeFromSystemTime": {
      "args": [
        [
          "SYSTEMTIME*",
          "pst"
        ],
        [
          "DWORD",
          "dwRFC"
        ],
        [
          "LPSTR",
          "lpszTime"
        ],
        [
          "buffer",
          "size"
        ]
      ],
      "call": "std"
    },
    "InternetTimeFromSystemTimeA": {
      "args": [
        [
          "SYSTEMTIME*",
          "pst"
        ],
        [
          "DWORD",
          "dwRFC"
        ],
        [
          "LPSTR",
          "lpszTime"
        ],
        [
          "buffer",
          "size"
        ]
      ],
      "call": "std"
    },
    "InternetTimeFromSystemTimeW": {
      "args": [
        [
          "SYSTEMTIME*",
          "pst"
        ],
        [
          "DWORD",
          "dwRFC"
        ],
        [
          "LPWSTR",
          "lpszTime"
        ],
        [
          "buffer",
          "size"
        ]
      ],
      "call": "std"
    },
    "InternetTimeToSystemTime": {
      "args": [
        [
          "LPCSTR",
          "lpszTime"
        ],
        [
          "SYSTEMTIME*",
          "pst"
        ],
        [
          "DWORD",
          "dwReserved"
        ]
      ],
      "call": "std"
    },
    "InternetTimeToSystemTimeA": {
      "args": [
        [
          "LPCSTR",
          "lpszTime"
        ],
        [
          "SYSTEMTIME*",
          "pst"
        ],
        [
          "DWORD",
          "dwReserved"
        ]
      ],
      "call": "std"
    },
    "InternetTimeToSystemTimeW": {
      "args": [
        [
          "LPCWSTR",
          "lpszTime"
        ],
        [
          "SYSTEMTIME*",
          "pst"
        ],
        [
          "DWORD",
          "dwReserved"
        ]
      ],
      "call": "std"
    },
    "InternetUnlockRequestFile": {
      "args": [
        [
          "HANDLE",
          "hLockRequestInfo"
        ]
      ],
      "call": "std"
    },
    "InternetWriteFile": {
      "args": [
        [
          "HINTERNET",
          "hFile"
        ],
        [
          "LPCVOID",
          "lpBuffer"
        ],
        [
          "DWORD",
          "dwNumberOfBytesToWrite"
        ],
        [
          "LPDWORD",
          "lpdwNumberOfBytesWritten"
        ]
      ],
      "call": "std"
    },
    "InternetWriteFileExA": {
      "args": [
        [
          "HINTERNET",
          "hFile"
        ],
        [
          "LPINTERNET_BUFFERSA",
          "lpBuffersIn"
        ],
        [
          "DWORD",
          "dwFlags"
        ],
        [
          "DWORD_PTR",
          "dwContext"
        ]
      ],
      "call": "std"
    },
    "InternetWriteFileExW": {
      "args": [
        [
          "HINTERNET",
          "hFile"
        ],
        [
          "LPINTERNET_BUFFERSW",
          "lpBuffersIn"
        ],
        [
          "DWORD",
          "dwFlags"
        ],
        [
          "DWORD_PTR",
          "dwContext"
        ]
      ],
      "call": "std"
    },
    "IsHostInProxyBypassList": {
      "args": [
        [
          "INTERNET_SCHEME",
          "tScheme"
        ],
        [
          "LPCSTR",
          "lpszHost"
        ],
        [
          "DWORD",
          "cchHost"
        ]
      ],
      "call": "std"
    },
    "IsUrlCacheEntryExpiredA": {
      "args": [
        [
          "LPCSTR",
          "lpszUrlName"
        ],
        [
          "DWORD",
          "dwFlags"
        ],
        [
          "FILETIME*",
          "pftLastModified"
        ]
      ],
      "call": "std"
    },
    "IsUrlCacheEntryExpiredW": {
      "args": [
        [
          "LPCWSTR",
          "lpszUrlName"
        ],
        [
          "DWORD",
          "dwFlags"
        ],
        [
          "FILETIME*",
          "pftLastModified"
        ]
      ],
      "call": "std"
    },
    "ParseX509EncodedCertificateForListBoxEntry": {
      "args": [
        [
          "LPBYTE",
          "lpCert"
        ],
        [
          "DWORD",
          "cbCert"
        ],
        [
          "LPSTR",
          "lpszListBoxEntry"
        ],
        [
          "LPDWORD",
          "lpdwListBoxEntry"
        ]
      ],
      "call": "std"
    },
    "PrivacyGetZonePreferenceW": {
      "args": [
        [
          "DWORD",
          "dwZone"
        ],
        [
          "DWORD",
          "dwType"
        ],
        [
          "LPDWORD",
          "pdwTemplate"
        ],
        [
          "LPWSTR",
          "pszBuffer"
        ],
        [
          "LPDWORD",
          "pdwBufferLength"
        ]
      ],
      "call": "std"
    },
    "PrivacySetZonePreferenceW": {
      "args": [
        [
          "DWORD",
          "dwZone"
        ],
        [
          "DWORD",
          "dwType"
        ],
        [
          "DWORD",
          "dwTemplate"
        ],
        [
          "LPCWSTR",
          "pszPreference"
        ]
      ],
      "call": "std"
    },
    "ReadUrlCacheEntryStream": {
      "args": [
        [
          "HANDLE",
          "hUrlCacheStream"
        ],
        [
          "DWORD",
          "dwLocation"
        ],
        [
          "LPVOID",
          "lpBuffer"
        ],
        [
          "LPDWORD",
          "lpdwLen"
        ],
        [
          "DWORD",
          "Reserved"
        ]
      ],
      "call": "std"
    },
    "ReadUrlCacheEntryStreamEx": {
      "args": [
        [
          "HANDLE",
          "hUrlCacheStream"
        ],
        [
          "DWORDLONG",
          "qwLocation"
        ],
        [
          "LPVOID",
          "lpBuffer"
        ],
        [
          "LPDWORD",
          "lpdwLen"
        ]
      ],
      "call": "std"
    },
    "RegisterUrlCacheNotification": {
      "args": [
        [
          "HWND",
          "hWnd"
        ],
        [
          "UINT",
          "uMsg"
        ],
        [
          "GROUPID",
          "gid"
        ],
        [
          "DWORD",
          "dwOpsFilter"
        ],
        [
          "DWORD",
          "dwReserved"
        ]
      ],
      "call": "std"
    },
    "ResumeSuspendedDownload": {
      "args": [
        [
          "HINTERNET",
          "hRequest"
        ],
        [
          "DWORD",
          "dwResultCode"
        ]
      ],
      "call": "std"
    },
    "RetrieveUrlCacheEntryFileA": {
      "args": [
        [
          "LPCSTR",
          "lpszUrlName"
        ],
        [
          "LPINTERNET_CACHE_ENTRY_INFOA",
          "lpCacheEntryInfo"
        ],
        [
          "LPDWORD",
          "lpcbCacheEntryInfo"
        ],
        [
          "DWORD",
          "dwReserved"
        ]
      ],
      "call": "std"
    },
    "RetrieveUrlCacheEntryFileW": {
      "args": [
        [
          "LPCWSTR",
          "lpszUrlName"
        ],
        [
          "LPINTERNET_CACHE_ENTRY_INFOW",
          "lpCacheEntryInfo"
        ],
        [
          "LPDWORD",
          "lpcbCacheEntryInfo"
        ],
        [
          "DWORD",
          "dwReserved"
        ]
      ],
      "call": "std"
    },
    "RetrieveUrlCacheEntryStreamA": {
      "args": [
        [
          "LPCSTR",
          "lpszUrlName"
        ],
        [
          "LPINTERNET_CACHE_ENTRY_INFOA",
          "lpCacheEntryInfo"
        ],
        [
          "LPDWORD",
          "lpcbCacheEntryInfo"
        ],
        [
          "BOOL",
          "fRandomRead"
        ],
        [
          "DWORD",
          "dwReserved"
        ]
      ],
      "call": "std"
    },
    "RetrieveUrlCacheEntryStreamW": {
      "args": [
        [
          "LPCWSTR",
          "lpszUrlName"
        ],
        [
          "LPINTERNET_CACHE_ENTRY_INFOW",
          "lpCacheEntryInfo"
        ],
        [
          "LPDWORD",
          "lpcbCacheEntryInfo"
        ],
        [
          "BOOL",
          "fRandomRead"
        ],
        [
          "DWORD",
          "dwReserved"
        ]
      ],
      "call": "std"
    },
    "RunOnceUrlCache": {
      "args": [
        [
          "HWND",
          "hwnd"
        ],
        [
          "HINSTANCE",
          "hinst"
        ],
        [
          "LPSTR",
          "lpszCmd"
        ],
        [
          "int",
          "nCmdShow"
        ]
      ],
      "call": "std"
    },
    "SetUrlCacheConfigInfoA": {
      "args": [
        [
          "LPINTERNET_CACHE_CONFIG_INFOA",
          "lpCacheConfigInfo"
        ],
        [
          "DWORD",
          "dwFieldControl"
        ]
      ],
      "call": "std"
    },
    "SetUrlCacheConfigInfoW": {
      "args": [
        [
          "LPINTERNET_CACHE_CONFIG_INFOW",
          "lpCacheConfigInfo"
        ],
        [
          "DWORD",
          "dwFieldControl"
        ]
      ],
      "call": "std"
    },
    "SetUrlCacheEntryGroup": {
      "args": [
        [
          "LPCSTR",
          "lpszUrlName"
        ],
        [
          "DWORD",
          "dwFlags"
        ],
        [
          "GROUPID",
          "GroupId"
        ],
        [
          "LPBYTE",
          "pbGroupAttributes"
        ],
        [
          "DWORD",
          "cbGroupAttributes"
        ],
        [
          "LPVOID",
          "lpReserved"
        ]
      ],
      "call": "std"
    },
    "SetUrlCacheEntryGroupA": {
      "args": [
        [
          "LPCSTR",
          "lpszUrlName"
        ],
        [
          "DWORD",
          "dwFlags"
        ],
        [
          "GROUPID",
          "GroupId"
        ],
        [
          "LPBYTE",
          "pbGroupAttributes"
        ],
        [
          "DWORD",
          "cbGroupAttributes"
        ],
        [
          "LPVOID",
          "lpReserved"
        ]
      ],
      "call": "std"
    },
    "SetUrlCacheEntryGroupW": {
      "args": [
        [
          "LPCWSTR",
          "lpszUrlName"
        ],
        [
          "DWORD",
          "dwFlags"
        ],
        [
          "GROUPID",
          "GroupId"
        ],
        [
          "LPBYTE",
          "pbGroupAttributes"
        ],
        [
          "DWORD",
          "cbGroupAttributes"
        ],
        [
          "LPVOID",
          "lpReserved"
        ]
      ],
      "call": "std"
    },
    "SetUrlCacheEntryInfoA": {
      "args": [
        [
          "LPCSTR",
          "lpszUrlName"
        ],
        [
          "LPINTERNET_CACHE_ENTRY_INFOA",
          "lpCacheEntryInfo"
        ],
        [
          "DWORD",
          "dwFieldControl"
        ]
      ],
      "call": "std"
    },
    "SetUrlCacheEntryInfoW": {
      "args": [
        [
          "LPCWSTR",
          "lpszUrlName"
        ],
        [
          "LPINTERNET_CACHE_ENTRY_INFOW",
          "lpCacheEntryInfo"
        ],
        [
          "DWORD",
          "dwFieldControl"
        ]
      ],
      "call": "std"
    },
    "ShowClientAuthCerts": {
      "args": [
        [
          "HWND",
          "hWndParent"
        ]
      ],
      "call": "std"
    },
    "ShowSecurityInfo": {
      "args": [
        [
          "HWND",
          "hWndParent"
        ],
        [
          "LPINTERNET_SECURITY_INFO",
          "pSecurityInfo"
        ]
      ],
      "call": "std"
    },
    "ShowX509EncodedCertificate": {
      "args": [
        [
          "HWND",
          "hWndParent"
        ],
        [
          "LPBYTE",
          "lpCert"
        ],
        [
          "DWORD",
          "cbCert"
        ]
      ],
      "call": "std"
    },
    "UnlockUrlCacheEntryFile": {
      "args": [
        [
          "LPCSTR",
          "lpszUrlName"
        ],
        [
          "DWORD",
          "dwReserved"
        ]
      ],
      "call": "std"
    },
    "UnlockUrlCacheEntryFileA": {
      "args": [
        [
          "LPCSTR",
          "lpszUrlName"
        ],
        [
          "DWORD",
          "dwReserved"
        ]
      ],
      "call": "std"
    },
    "UnlockUrlCacheEntryFileW": {
      "args": [
        [
          "LPCWSTR",
          "lpszUrlName"
        ],
        [
          "DWORD",
          "dwReserved"
        ]
      ],
      "call": "std"
    },
    "UnlockUrlCacheEntryStream": {
      "args": [
        [
          "HANDLE",
          "hUrlCacheStream"
        ],
        [
          "DWORD",
          "Reserved"
        ]
      ],
      "call": "std"
    },
    "UpdateUrlCacheContentPath": {
      "args": [
        [
          "LPCSTR",
          "szNewPath"
        ]
      ],
      "call": "std"
    },
    "_GetFileExtensionFromUrl": {
      "args": [
        [
          "LPSTR",
          "lpszUrl"
        ],
        [
          "DWORD",
          "dwFlags"
        ],
        [
          "LPSTR",
          "lpszExt"
        ],
        [
          "DWORD*",
          "pcchExt"
        ]
      ],
      "call": "std"
    }
  },
  "imagebase": 1660944384
}